<?xml version="1.0" encoding="UTF-8"?>
<dia:diagram xmlns:dia="http://www.lysator.liu.se/~alla/dia/">
  <dia:diagramdata>
    <dia:attribute name="background">
      <dia:color val="#ffffff"/>
    </dia:attribute>
    <dia:attribute name="pagebreak">
      <dia:color val="#000099"/>
    </dia:attribute>
    <dia:attribute name="paper">
      <dia:composite type="paper">
        <dia:attribute name="name">
          <dia:string>#A4#</dia:string>
        </dia:attribute>
        <dia:attribute name="tmargin">
          <dia:real val="2.8222000598907471"/>
        </dia:attribute>
        <dia:attribute name="bmargin">
          <dia:real val="2.8222000598907471"/>
        </dia:attribute>
        <dia:attribute name="lmargin">
          <dia:real val="2.8222000598907471"/>
        </dia:attribute>
        <dia:attribute name="rmargin">
          <dia:real val="2.8222000598907471"/>
        </dia:attribute>
        <dia:attribute name="is_portrait">
          <dia:boolean val="true"/>
        </dia:attribute>
        <dia:attribute name="scaling">
          <dia:real val="1"/>
        </dia:attribute>
        <dia:attribute name="fitto">
          <dia:boolean val="false"/>
        </dia:attribute>
      </dia:composite>
    </dia:attribute>
    <dia:attribute name="grid">
      <dia:composite type="grid">
        <dia:attribute name="width_x">
          <dia:real val="1"/>
        </dia:attribute>
        <dia:attribute name="width_y">
          <dia:real val="1"/>
        </dia:attribute>
        <dia:attribute name="visible_x">
          <dia:int val="1"/>
        </dia:attribute>
        <dia:attribute name="visible_y">
          <dia:int val="1"/>
        </dia:attribute>
        <dia:composite type="color"/>
      </dia:composite>
    </dia:attribute>
    <dia:attribute name="color">
      <dia:color val="#d8e5e5"/>
    </dia:attribute>
    <dia:attribute name="guides">
      <dia:composite type="guides">
        <dia:attribute name="hguides"/>
        <dia:attribute name="vguides"/>
      </dia:composite>
    </dia:attribute>
  </dia:diagramdata>
  <dia:layer name="Background" visible="true">
    <dia:object type="Standard - Box" version="0" id="O0">
      <dia:attribute name="obj_pos">
        <dia:point val="18,8"/>
      </dia:attribute>
      <dia:attribute name="obj_bb">
        <dia:rectangle val="17.95,7.95;41.6,27.05"/>
      </dia:attribute>
      <dia:attribute name="elem_corner">
        <dia:point val="18,8"/>
      </dia:attribute>
      <dia:attribute name="elem_width">
        <dia:real val="23.550000000000001"/>
      </dia:attribute>
      <dia:attribute name="elem_height">
        <dia:real val="19"/>
      </dia:attribute>
      <dia:attribute name="border_color">
        <dia:color val="#525252"/>
      </dia:attribute>
      <dia:attribute name="show_background">
        <dia:boolean val="false"/>
      </dia:attribute>
      <dia:attribute name="line_style">
        <dia:enum val="4"/>
      </dia:attribute>
      <dia:attribute name="corner_radius">
        <dia:real val="1"/>
      </dia:attribute>
    </dia:object>
    <dia:object type="Standard - Box" version="0" id="O1">
      <dia:attribute name="obj_pos">
        <dia:point val="-7,8"/>
      </dia:attribute>
      <dia:attribute name="obj_bb">
        <dia:rectangle val="-7.05,7.95;16.6,17.05"/>
      </dia:attribute>
      <dia:attribute name="elem_corner">
        <dia:point val="-7,8"/>
      </dia:attribute>
      <dia:attribute name="elem_width">
        <dia:real val="23.550000000000001"/>
      </dia:attribute>
      <dia:attribute name="elem_height">
        <dia:real val="9"/>
      </dia:attribute>
      <dia:attribute name="border_color">
        <dia:color val="#525252"/>
      </dia:attribute>
      <dia:attribute name="show_background">
        <dia:boolean val="false"/>
      </dia:attribute>
      <dia:attribute name="line_style">
        <dia:enum val="4"/>
      </dia:attribute>
      <dia:attribute name="corner_radius">
        <dia:real val="1"/>
      </dia:attribute>
    </dia:object>
    <dia:group>
      <dia:object type="Standard - Box" version="0" id="O2">
        <dia:attribute name="obj_pos">
          <dia:point val="10,14"/>
        </dia:attribute>
        <dia:attribute name="obj_bb">
          <dia:rectangle val="9.95,13.95;14,16.35"/>
        </dia:attribute>
        <dia:attribute name="elem_corner">
          <dia:point val="10,14"/>
        </dia:attribute>
        <dia:attribute name="elem_width">
          <dia:real val="3.9499999999999993"/>
        </dia:attribute>
        <dia:attribute name="elem_height">
          <dia:real val="2.2999999999999972"/>
        </dia:attribute>
        <dia:attribute name="show_background">
          <dia:boolean val="true"/>
        </dia:attribute>
      </dia:object>
      <dia:object type="Standard - Text" version="1" id="O3">
        <dia:attribute name="obj_pos">
          <dia:point val="11.05,15.35"/>
        </dia:attribute>
        <dia:attribute name="obj_bb">
          <dia:rectangle val="11.05,14.8;12.85,15.75"/>
        </dia:attribute>
        <dia:attribute name="text">
          <dia:composite type="text">
            <dia:attribute name="string">
              <dia:string>#coder#</dia:string>
            </dia:attribute>
            <dia:attribute name="font">
              <dia:font family="sans" style="0" name="Helvetica"/>
            </dia:attribute>
            <dia:attribute name="height">
              <dia:real val="0.80000000000000004"/>
            </dia:attribute>
            <dia:attribute name="pos">
              <dia:point val="11.05,15.35"/>
            </dia:attribute>
            <dia:attribute name="color">
              <dia:color val="#000000"/>
            </dia:attribute>
            <dia:attribute name="alignment">
              <dia:enum val="0"/>
            </dia:attribute>
          </dia:composite>
        </dia:attribute>
        <dia:attribute name="valign">
          <dia:enum val="3"/>
        </dia:attribute>
      </dia:object>
    </dia:group>
    <dia:object type="Standard - Line" version="0" id="O4">
      <dia:attribute name="obj_pos">
        <dia:point val="12.8,12.25"/>
      </dia:attribute>
      <dia:attribute name="obj_bb">
        <dia:rectangle val="11.5014,12.1835;12.8665,14.2584"/>
      </dia:attribute>
      <dia:attribute name="conn_endpoints">
        <dia:point val="12.8,12.25"/>
        <dia:point val="11.975,14"/>
      </dia:attribute>
      <dia:attribute name="numcp">
        <dia:int val="1"/>
      </dia:attribute>
      <dia:attribute name="end_arrow">
        <dia:enum val="1"/>
      </dia:attribute>
      <dia:attribute name="end_arrow_length">
        <dia:real val="0.5"/>
      </dia:attribute>
      <dia:attribute name="end_arrow_width">
        <dia:real val="0.5"/>
      </dia:attribute>
      <dia:connections>
        <dia:connection handle="0" to="O17" connection="6"/>
        <dia:connection handle="1" to="O2" connection="1"/>
      </dia:connections>
    </dia:object>
    <dia:object type="Standard - Arc" version="0" id="O5">
      <dia:attribute name="obj_pos">
        <dia:point val="6,10.325"/>
      </dia:attribute>
      <dia:attribute name="obj_bb">
        <dia:rectangle val="5.9464,9.80349;10.0873,11.1273"/>
      </dia:attribute>
      <dia:attribute name="conn_endpoints">
        <dia:point val="6,10.325"/>
        <dia:point val="10,10.625"/>
      </dia:attribute>
      <dia:attribute name="curve_distance">
        <dia:real val="-0.61318146580442856"/>
      </dia:attribute>
      <dia:attribute name="end_arrow">
        <dia:enum val="1"/>
      </dia:attribute>
      <dia:attribute name="end_arrow_length">
        <dia:real val="0.5"/>
      </dia:attribute>
      <dia:attribute name="end_arrow_width">
        <dia:real val="0.5"/>
      </dia:attribute>
      <dia:connections>
        <dia:connection handle="0" to="O13" connection="4"/>
        <dia:connection handle="1" to="O17" connection="3"/>
      </dia:connections>
    </dia:object>
    <dia:object type="Standard - Arc" version="0" id="O6">
      <dia:attribute name="obj_pos">
        <dia:point val="10,15.15"/>
      </dia:attribute>
      <dia:attribute name="obj_bb">
        <dia:rectangle val="5.85003,13.8252;10.0591,15.2091"/>
      </dia:attribute>
      <dia:attribute name="conn_endpoints">
        <dia:point val="10,15.15"/>
        <dia:point val="6,14.325"/>
      </dia:attribute>
      <dia:attribute name="curve_distance">
        <dia:real val="0.036726969941801316"/>
      </dia:attribute>
      <dia:attribute name="end_arrow">
        <dia:enum val="1"/>
      </dia:attribute>
      <dia:attribute name="end_arrow_length">
        <dia:real val="0.5"/>
      </dia:attribute>
      <dia:attribute name="end_arrow_width">
        <dia:real val="0.5"/>
      </dia:attribute>
      <dia:connections>
        <dia:connection handle="0" to="O2" connection="3"/>
        <dia:connection handle="1" to="O15" connection="4"/>
      </dia:connections>
    </dia:object>
    <dia:object type="Standard - Line" version="0" id="O7">
      <dia:attribute name="obj_pos">
        <dia:point val="16.2571,8.29289"/>
      </dia:attribute>
      <dia:attribute name="obj_bb">
        <dia:rectangle val="16.1888,6.93174;17.0683,8.36116"/>
      </dia:attribute>
      <dia:attribute name="conn_endpoints">
        <dia:point val="16.2571,8.29289"/>
        <dia:point val="17,7"/>
      </dia:attribute>
      <dia:attribute name="numcp">
        <dia:int val="1"/>
      </dia:attribute>
      <dia:attribute name="line_color">
        <dia:color val="#525252"/>
      </dia:attribute>
      <dia:attribute name="line_style">
        <dia:enum val="4"/>
      </dia:attribute>
      <dia:connections>
        <dia:connection handle="0" to="O1" connection="2"/>
      </dia:connections>
    </dia:object>
    <dia:object type="Standard - Text" version="1" id="O8">
      <dia:attribute name="obj_pos">
        <dia:point val="17,7"/>
      </dia:attribute>
      <dia:attribute name="obj_bb">
        <dia:rectangle val="17,6.4325;18.9675,7.435"/>
      </dia:attribute>
      <dia:attribute name="text">
        <dia:composite type="text">
          <dia:attribute name="string">
            <dia:string>#task A#</dia:string>
          </dia:attribute>
          <dia:attribute name="font">
            <dia:font family="sans" style="0" name="Helvetica"/>
          </dia:attribute>
          <dia:attribute name="height">
            <dia:real val="0.80000000000000004"/>
          </dia:attribute>
          <dia:attribute name="pos">
            <dia:point val="17,7"/>
          </dia:attribute>
          <dia:attribute name="color">
            <dia:color val="#525252"/>
          </dia:attribute>
          <dia:attribute name="alignment">
            <dia:enum val="0"/>
          </dia:attribute>
        </dia:composite>
      </dia:attribute>
      <dia:attribute name="valign">
        <dia:enum val="3"/>
      </dia:attribute>
    </dia:object>
    <dia:object type="Standard - Line" version="0" id="O9">
      <dia:attribute name="obj_pos">
        <dia:point val="-1.225,10.28"/>
      </dia:attribute>
      <dia:attribute name="obj_bb">
        <dia:rectangle val="-1.276,9.82409;1.0601,10.8259"/>
      </dia:attribute>
      <dia:attribute name="conn_endpoints">
        <dia:point val="-1.225,10.28"/>
        <dia:point val="1,10.325"/>
      </dia:attribute>
      <dia:attribute name="numcp">
        <dia:int val="1"/>
      </dia:attribute>
      <dia:attribute name="end_arrow">
        <dia:enum val="1"/>
      </dia:attribute>
      <dia:attribute name="end_arrow_length">
        <dia:real val="0.5"/>
      </dia:attribute>
      <dia:attribute name="end_arrow_width">
        <dia:real val="0.5"/>
      </dia:attribute>
      <dia:connections>
        <dia:connection handle="0" to="O61" connection="4"/>
        <dia:connection handle="1" to="O13" connection="3"/>
      </dia:connections>
    </dia:object>
    <dia:object type="Standard - Line" version="0" id="O10">
      <dia:attribute name="obj_pos">
        <dia:point val="1,14.325"/>
      </dia:attribute>
      <dia:attribute name="obj_bb">
        <dia:rectangle val="-1.0389,13.8788;1.05137,14.8812"/>
      </dia:attribute>
      <dia:attribute name="conn_endpoints">
        <dia:point val="1,14.325"/>
        <dia:point val="-0.975,14.38"/>
      </dia:attribute>
      <dia:attribute name="numcp">
        <dia:int val="1"/>
      </dia:attribute>
      <dia:attribute name="end_arrow">
        <dia:enum val="1"/>
      </dia:attribute>
      <dia:attribute name="end_arrow_length">
        <dia:real val="0.5"/>
      </dia:attribute>
      <dia:attribute name="end_arrow_width">
        <dia:real val="0.5"/>
      </dia:attribute>
      <dia:connections>
        <dia:connection handle="0" to="O15" connection="3"/>
        <dia:connection handle="1" to="O63" connection="4"/>
      </dia:connections>
    </dia:object>
    <dia:object type="Standard - Line" version="0" id="O11">
      <dia:attribute name="obj_pos">
        <dia:point val="35.975,10.38"/>
      </dia:attribute>
      <dia:attribute name="obj_bb">
        <dia:rectangle val="33.9361,9.8238;36.0264,10.8262"/>
      </dia:attribute>
      <dia:attribute name="conn_endpoints">
        <dia:point val="35.975,10.38"/>
        <dia:point val="34,10.325"/>
      </dia:attribute>
      <dia:attribute name="numcp">
        <dia:int val="1"/>
      </dia:attribute>
      <dia:attribute name="end_arrow">
        <dia:enum val="1"/>
      </dia:attribute>
      <dia:attribute name="end_arrow_length">
        <dia:real val="0.5"/>
      </dia:attribute>
      <dia:attribute name="end_arrow_width">
        <dia:real val="0.5"/>
      </dia:attribute>
      <dia:connections>
        <dia:connection handle="0" to="O69" connection="3"/>
        <dia:connection handle="1" to="O52" connection="4"/>
      </dia:connections>
    </dia:object>
    <dia:object type="Standard - Line" version="0" id="O12">
      <dia:attribute name="obj_pos">
        <dia:point val="34,24.325"/>
      </dia:attribute>
      <dia:attribute name="obj_bb">
        <dia:rectangle val="33.9499,23.8299;36.1762,24.8301"/>
      </dia:attribute>
      <dia:attribute name="conn_endpoints">
        <dia:point val="34,24.325"/>
        <dia:point val="36.125,24.33"/>
      </dia:attribute>
      <dia:attribute name="numcp">
        <dia:int val="1"/>
      </dia:attribute>
      <dia:attribute name="end_arrow">
        <dia:enum val="1"/>
      </dia:attribute>
      <dia:attribute name="end_arrow_length">
        <dia:real val="0.5"/>
      </dia:attribute>
      <dia:attribute name="end_arrow_width">
        <dia:real val="0.5"/>
      </dia:attribute>
      <dia:connections>
        <dia:connection handle="0" to="O56" connection="4"/>
        <dia:connection handle="1" to="O71" connection="3"/>
      </dia:connections>
    </dia:object>
    <dia:group>
      <dia:object type="Standard - Box" version="0" id="O13">
        <dia:attribute name="obj_pos">
          <dia:point val="1,9"/>
        </dia:attribute>
        <dia:attribute name="obj_bb">
          <dia:rectangle val="0.95,8.95;6.05,11.7"/>
        </dia:attribute>
        <dia:attribute name="elem_corner">
          <dia:point val="1,9"/>
        </dia:attribute>
        <dia:attribute name="elem_width">
          <dia:real val="5"/>
        </dia:attribute>
        <dia:attribute name="elem_height">
          <dia:real val="2.6500000000000021"/>
        </dia:attribute>
        <dia:attribute name="show_background">
          <dia:boolean val="true"/>
        </dia:attribute>
      </dia:object>
      <dia:object type="Standard - Text" version="1" id="O14">
        <dia:attribute name="obj_pos">
          <dia:point val="1.75,10.6"/>
        </dia:attribute>
        <dia:attribute name="obj_bb">
          <dia:rectangle val="1.75,10.05;5.65,11"/>
        </dia:attribute>
        <dia:attribute name="text">
          <dia:composite type="text">
            <dia:attribute name="string">
              <dia:string>#I/O module 1#</dia:string>
            </dia:attribute>
            <dia:attribute name="font">
              <dia:font family="sans" style="0" name="Helvetica"/>
            </dia:attribute>
            <dia:attribute name="height">
              <dia:real val="0.80000000000000004"/>
            </dia:attribute>
            <dia:attribute name="pos">
              <dia:point val="1.75,10.6"/>
            </dia:attribute>
            <dia:attribute name="color">
              <dia:color val="#000000"/>
            </dia:attribute>
            <dia:attribute name="alignment">
              <dia:enum val="0"/>
            </dia:attribute>
          </dia:composite>
        </dia:attribute>
        <dia:attribute name="valign">
          <dia:enum val="3"/>
        </dia:attribute>
      </dia:object>
    </dia:group>
    <dia:group>
      <dia:object type="Standard - Box" version="0" id="O15">
        <dia:attribute name="obj_pos">
          <dia:point val="1,13"/>
        </dia:attribute>
        <dia:attribute name="obj_bb">
          <dia:rectangle val="0.95,12.95;6.05,15.7"/>
        </dia:attribute>
        <dia:attribute name="elem_corner">
          <dia:point val="1,13"/>
        </dia:attribute>
        <dia:attribute name="elem_width">
          <dia:real val="5"/>
        </dia:attribute>
        <dia:attribute name="elem_height">
          <dia:real val="2.6500000000000021"/>
        </dia:attribute>
        <dia:attribute name="show_background">
          <dia:boolean val="true"/>
        </dia:attribute>
      </dia:object>
      <dia:object type="Standard - Text" version="1" id="O16">
        <dia:attribute name="obj_pos">
          <dia:point val="1.75,14.6"/>
        </dia:attribute>
        <dia:attribute name="obj_bb">
          <dia:rectangle val="1.75,14.05;5.65,15"/>
        </dia:attribute>
        <dia:attribute name="text">
          <dia:composite type="text">
            <dia:attribute name="string">
              <dia:string>#I/O module 2#</dia:string>
            </dia:attribute>
            <dia:attribute name="font">
              <dia:font family="sans" style="0" name="Helvetica"/>
            </dia:attribute>
            <dia:attribute name="height">
              <dia:real val="0.80000000000000004"/>
            </dia:attribute>
            <dia:attribute name="pos">
              <dia:point val="1.75,14.6"/>
            </dia:attribute>
            <dia:attribute name="color">
              <dia:color val="#000000"/>
            </dia:attribute>
            <dia:attribute name="alignment">
              <dia:enum val="0"/>
            </dia:attribute>
          </dia:composite>
        </dia:attribute>
        <dia:attribute name="valign">
          <dia:enum val="3"/>
        </dia:attribute>
      </dia:object>
    </dia:group>
    <dia:group>
      <dia:object type="Standard - Box" version="0" id="O17">
        <dia:attribute name="obj_pos">
          <dia:point val="10,9"/>
        </dia:attribute>
        <dia:attribute name="obj_bb">
          <dia:rectangle val="9.95,8.95;15.65,12.3"/>
        </dia:attribute>
        <dia:attribute name="elem_corner">
          <dia:point val="10,9"/>
        </dia:attribute>
        <dia:attribute name="elem_width">
          <dia:real val="5.5999999999999979"/>
        </dia:attribute>
        <dia:attribute name="elem_height">
          <dia:real val="3.25"/>
        </dia:attribute>
        <dia:attribute name="show_background">
          <dia:boolean val="true"/>
        </dia:attribute>
      </dia:object>
      <dia:object type="Standard - Text" version="1" id="O18">
        <dia:attribute name="obj_pos">
          <dia:point val="10.75,10.375"/>
        </dia:attribute>
        <dia:attribute name="obj_bb">
          <dia:rectangle val="10.75,9.825;14.75,11.575"/>
        </dia:attribute>
        <dia:attribute name="text">
          <dia:composite type="text">
            <dia:attribute name="string">
              <dia:string>#compression
   method A#</dia:string>
            </dia:attribute>
            <dia:attribute name="font">
              <dia:font family="sans" style="0" name="Helvetica"/>
            </dia:attribute>
            <dia:attribute name="height">
              <dia:real val="0.80000000000000004"/>
            </dia:attribute>
            <dia:attribute name="pos">
              <dia:point val="10.75,10.375"/>
            </dia:attribute>
            <dia:attribute name="color">
              <dia:color val="#000000"/>
            </dia:attribute>
            <dia:attribute name="alignment">
              <dia:enum val="0"/>
            </dia:attribute>
          </dia:composite>
        </dia:attribute>
        <dia:attribute name="valign">
          <dia:enum val="3"/>
        </dia:attribute>
      </dia:object>
    </dia:group>
    <dia:object type="Standard - Box" version="0" id="O19">
      <dia:attribute name="obj_pos">
        <dia:point val="-7,18"/>
      </dia:attribute>
      <dia:attribute name="obj_bb">
        <dia:rectangle val="-7.05,17.95;16.6,31.05"/>
      </dia:attribute>
      <dia:attribute name="elem_corner">
        <dia:point val="-7,18"/>
      </dia:attribute>
      <dia:attribute name="elem_width">
        <dia:real val="23.550000000000001"/>
      </dia:attribute>
      <dia:attribute name="elem_height">
        <dia:real val="13"/>
      </dia:attribute>
      <dia:attribute name="border_color">
        <dia:color val="#525252"/>
      </dia:attribute>
      <dia:attribute name="show_background">
        <dia:boolean val="false"/>
      </dia:attribute>
      <dia:attribute name="line_style">
        <dia:enum val="4"/>
      </dia:attribute>
      <dia:attribute name="corner_radius">
        <dia:real val="1"/>
      </dia:attribute>
    </dia:object>
    <dia:object type="Standard - Arc" version="0" id="O20">
      <dia:attribute name="obj_pos">
        <dia:point val="6,21.325"/>
      </dia:attribute>
      <dia:attribute name="obj_bb">
        <dia:rectangle val="5.94213,20.2661;10.1354,21.3829"/>
      </dia:attribute>
      <dia:attribute name="conn_endpoints">
        <dia:point val="6,21.325"/>
        <dia:point val="10,20.625"/>
      </dia:attribute>
      <dia:attribute name="curve_distance">
        <dia:real val="-0.61318146580442856"/>
      </dia:attribute>
      <dia:attribute name="end_arrow">
        <dia:enum val="1"/>
      </dia:attribute>
      <dia:attribute name="end_arrow_length">
        <dia:real val="0.5"/>
      </dia:attribute>
      <dia:attribute name="end_arrow_width">
        <dia:real val="0.5"/>
      </dia:attribute>
      <dia:connections>
        <dia:connection handle="0" to="O25" connection="4"/>
        <dia:connection handle="1" to="O37" connection="3"/>
      </dia:connections>
    </dia:object>
    <dia:object type="Standard - Arc" version="0" id="O21">
      <dia:attribute name="obj_pos">
        <dia:point val="8,25.3"/>
      </dia:attribute>
      <dia:attribute name="obj_bb">
        <dia:rectangle val="5.94375,24.8244;8.05062,25.5505"/>
      </dia:attribute>
      <dia:attribute name="conn_endpoints">
        <dia:point val="8,25.3"/>
        <dia:point val="6,25.325"/>
      </dia:attribute>
      <dia:attribute name="curve_distance">
        <dia:real val="-0.1878088318945737"/>
      </dia:attribute>
      <dia:attribute name="end_arrow">
        <dia:enum val="1"/>
      </dia:attribute>
      <dia:attribute name="end_arrow_length">
        <dia:real val="0.5"/>
      </dia:attribute>
      <dia:attribute name="end_arrow_width">
        <dia:real val="0.5"/>
      </dia:attribute>
      <dia:connections>
        <dia:connection handle="0" to="O29" connection="3"/>
        <dia:connection handle="1" to="O27" connection="4"/>
      </dia:connections>
    </dia:object>
    <dia:object type="Standard - Line" version="0" id="O22">
      <dia:attribute name="obj_pos">
        <dia:point val="16.2571,30.7071"/>
      </dia:attribute>
      <dia:attribute name="obj_bb">
        <dia:rectangle val="16.192,29.9349;18.0651,30.7722"/>
      </dia:attribute>
      <dia:attribute name="conn_endpoints">
        <dia:point val="16.2571,30.7071"/>
        <dia:point val="18,30"/>
      </dia:attribute>
      <dia:attribute name="numcp">
        <dia:int val="1"/>
      </dia:attribute>
      <dia:attribute name="line_color">
        <dia:color val="#525252"/>
      </dia:attribute>
      <dia:attribute name="line_style">
        <dia:enum val="4"/>
      </dia:attribute>
      <dia:connections>
        <dia:connection handle="0" to="O19" connection="7"/>
      </dia:connections>
    </dia:object>
    <dia:object type="Standard - Line" version="0" id="O23">
      <dia:attribute name="obj_pos">
        <dia:point val="-0.927222,21.2814"/>
      </dia:attribute>
      <dia:attribute name="obj_bb">
        <dia:rectangle val="-0.97834,20.824;1.06129,21.826"/>
      </dia:attribute>
      <dia:attribute name="conn_endpoints">
        <dia:point val="-0.927222,21.2814"/>
        <dia:point val="1,21.325"/>
      </dia:attribute>
      <dia:attribute name="numcp">
        <dia:int val="1"/>
      </dia:attribute>
      <dia:attribute name="end_arrow">
        <dia:enum val="1"/>
      </dia:attribute>
      <dia:attribute name="end_arrow_length">
        <dia:real val="0.5"/>
      </dia:attribute>
      <dia:attribute name="end_arrow_width">
        <dia:real val="0.5"/>
      </dia:attribute>
      <dia:connections>
        <dia:connection handle="0" to="O65" connection="8"/>
        <dia:connection handle="1" to="O25" connection="3"/>
      </dia:connections>
    </dia:object>
    <dia:object type="Standard - Line" version="0" id="O24">
      <dia:attribute name="obj_pos">
        <dia:point val="1,25.325"/>
      </dia:attribute>
      <dia:attribute name="obj_bb">
        <dia:rectangle val="-1.1262,24.8299;1.05012,25.8301"/>
      </dia:attribute>
      <dia:attribute name="conn_endpoints">
        <dia:point val="1,25.325"/>
        <dia:point val="-1.075,25.33"/>
      </dia:attribute>
      <dia:attribute name="numcp">
        <dia:int val="1"/>
      </dia:attribute>
      <dia:attribute name="end_arrow">
        <dia:enum val="1"/>
      </dia:attribute>
      <dia:attribute name="end_arrow_length">
        <dia:real val="0.5"/>
      </dia:attribute>
      <dia:attribute name="end_arrow_width">
        <dia:real val="0.5"/>
      </dia:attribute>
      <dia:connections>
        <dia:connection handle="0" to="O27" connection="3"/>
        <dia:connection handle="1" to="O67" connection="4"/>
      </dia:connections>
    </dia:object>
    <dia:group>
      <dia:object type="Standard - Box" version="0" id="O25">
        <dia:attribute name="obj_pos">
          <dia:point val="1,20"/>
        </dia:attribute>
        <dia:attribute name="obj_bb">
          <dia:rectangle val="0.95,19.95;6.05,22.7"/>
        </dia:attribute>
        <dia:attribute name="elem_corner">
          <dia:point val="1,20"/>
        </dia:attribute>
        <dia:attribute name="elem_width">
          <dia:real val="5"/>
        </dia:attribute>
        <dia:attribute name="elem_height">
          <dia:real val="2.6500000000000021"/>
        </dia:attribute>
        <dia:attribute name="show_background">
          <dia:boolean val="true"/>
        </dia:attribute>
      </dia:object>
      <dia:object type="Standard - Text" version="1" id="O26">
        <dia:attribute name="obj_pos">
          <dia:point val="1.75,21.6"/>
        </dia:attribute>
        <dia:attribute name="obj_bb">
          <dia:rectangle val="1.75,21.05;5.65,22"/>
        </dia:attribute>
        <dia:attribute name="text">
          <dia:composite type="text">
            <dia:attribute name="string">
              <dia:string>#I/O module 3#</dia:string>
            </dia:attribute>
            <dia:attribute name="font">
              <dia:font family="sans" style="0" name="Helvetica"/>
            </dia:attribute>
            <dia:attribute name="height">
              <dia:real val="0.80000000000000004"/>
            </dia:attribute>
            <dia:attribute name="pos">
              <dia:point val="1.75,21.6"/>
            </dia:attribute>
            <dia:attribute name="color">
              <dia:color val="#000000"/>
            </dia:attribute>
            <dia:attribute name="alignment">
              <dia:enum val="0"/>
            </dia:attribute>
          </dia:composite>
        </dia:attribute>
        <dia:attribute name="valign">
          <dia:enum val="3"/>
        </dia:attribute>
      </dia:object>
    </dia:group>
    <dia:group>
      <dia:object type="Standard - Box" version="0" id="O27">
        <dia:attribute name="obj_pos">
          <dia:point val="1,24"/>
        </dia:attribute>
        <dia:attribute name="obj_bb">
          <dia:rectangle val="0.95,23.95;6.05,26.7"/>
        </dia:attribute>
        <dia:attribute name="elem_corner">
          <dia:point val="1,24"/>
        </dia:attribute>
        <dia:attribute name="elem_width">
          <dia:real val="5"/>
        </dia:attribute>
        <dia:attribute name="elem_height">
          <dia:real val="2.6500000000000021"/>
        </dia:attribute>
        <dia:attribute name="show_background">
          <dia:boolean val="true"/>
        </dia:attribute>
      </dia:object>
      <dia:object type="Standard - Text" version="1" id="O28">
        <dia:attribute name="obj_pos">
          <dia:point val="1.75,25.6"/>
        </dia:attribute>
        <dia:attribute name="obj_bb">
          <dia:rectangle val="1.75,25.05;5.65,26"/>
        </dia:attribute>
        <dia:attribute name="text">
          <dia:composite type="text">
            <dia:attribute name="string">
              <dia:string>#I/O module 4#</dia:string>
            </dia:attribute>
            <dia:attribute name="font">
              <dia:font family="sans" style="0" name="Helvetica"/>
            </dia:attribute>
            <dia:attribute name="height">
              <dia:real val="0.80000000000000004"/>
            </dia:attribute>
            <dia:attribute name="pos">
              <dia:point val="1.75,25.6"/>
            </dia:attribute>
            <dia:attribute name="color">
              <dia:color val="#000000"/>
            </dia:attribute>
            <dia:attribute name="alignment">
              <dia:enum val="0"/>
            </dia:attribute>
          </dia:composite>
        </dia:attribute>
        <dia:attribute name="valign">
          <dia:enum val="3"/>
        </dia:attribute>
      </dia:object>
    </dia:group>
    <dia:group>
      <dia:object type="Standard - Box" version="0" id="O29">
        <dia:attribute name="obj_pos">
          <dia:point val="8,24"/>
        </dia:attribute>
        <dia:attribute name="obj_bb">
          <dia:rectangle val="7.95,23.95;13.7,26.65"/>
        </dia:attribute>
        <dia:attribute name="elem_corner">
          <dia:point val="8,24"/>
        </dia:attribute>
        <dia:attribute name="elem_width">
          <dia:real val="5.6500000000000021"/>
        </dia:attribute>
        <dia:attribute name="elem_height">
          <dia:real val="2.5999999999999979"/>
        </dia:attribute>
        <dia:attribute name="show_background">
          <dia:boolean val="true"/>
        </dia:attribute>
      </dia:object>
      <dia:object type="Standard - Text" version="1" id="O30">
        <dia:attribute name="obj_pos">
          <dia:point val="9,25"/>
        </dia:attribute>
        <dia:attribute name="obj_bb">
          <dia:rectangle val="9,24.45;12.75,26.2"/>
        </dia:attribute>
        <dia:attribute name="text">
          <dia:composite type="text">
            <dia:attribute name="string">
              <dia:string>#output data
     coder#</dia:string>
            </dia:attribute>
            <dia:attribute name="font">
              <dia:font family="sans" style="0" name="Helvetica"/>
            </dia:attribute>
            <dia:attribute name="height">
              <dia:real val="0.80000000000000004"/>
            </dia:attribute>
            <dia:attribute name="pos">
              <dia:point val="9,25"/>
            </dia:attribute>
            <dia:attribute name="color">
              <dia:color val="#000000"/>
            </dia:attribute>
            <dia:attribute name="alignment">
              <dia:enum val="0"/>
            </dia:attribute>
          </dia:composite>
        </dia:attribute>
        <dia:attribute name="valign">
          <dia:enum val="3"/>
        </dia:attribute>
      </dia:object>
    </dia:group>
    <dia:group>
      <dia:object type="Standard - Box" version="0" id="O31">
        <dia:attribute name="obj_pos">
          <dia:point val="8,27"/>
        </dia:attribute>
        <dia:attribute name="obj_bb">
          <dia:rectangle val="7.95,26.95;13.7,29.65"/>
        </dia:attribute>
        <dia:attribute name="elem_corner">
          <dia:point val="8,27"/>
        </dia:attribute>
        <dia:attribute name="elem_width">
          <dia:real val="5.6500000000000021"/>
        </dia:attribute>
        <dia:attribute name="elem_height">
          <dia:real val="2.5999999999999979"/>
        </dia:attribute>
        <dia:attribute name="show_background">
          <dia:boolean val="true"/>
        </dia:attribute>
      </dia:object>
      <dia:object type="Standard - Text" version="1" id="O32">
        <dia:attribute name="obj_pos">
          <dia:point val="9.975,28.2"/>
        </dia:attribute>
        <dia:attribute name="obj_bb">
          <dia:rectangle val="9.975,27.65;11.875,29.4"/>
        </dia:attribute>
        <dia:attribute name="text">
          <dia:composite type="text">
            <dia:attribute name="string">
              <dia:string>#model
coder#</dia:string>
            </dia:attribute>
            <dia:attribute name="font">
              <dia:font family="sans" style="0" name="Helvetica"/>
            </dia:attribute>
            <dia:attribute name="height">
              <dia:real val="0.80000000000000004"/>
            </dia:attribute>
            <dia:attribute name="pos">
              <dia:point val="9.975,28.2"/>
            </dia:attribute>
            <dia:attribute name="color">
              <dia:color val="#000000"/>
            </dia:attribute>
            <dia:attribute name="alignment">
              <dia:enum val="0"/>
            </dia:attribute>
          </dia:composite>
        </dia:attribute>
        <dia:attribute name="valign">
          <dia:enum val="3"/>
        </dia:attribute>
      </dia:object>
    </dia:group>
    <dia:object type="Standard - Arc" version="0" id="O33">
      <dia:attribute name="obj_pos">
        <dia:point val="12.8,22.25"/>
      </dia:attribute>
      <dia:attribute name="obj_bb">
        <dia:rectangle val="12.7435,22.1935;15.453,28.4191"/>
      </dia:attribute>
      <dia:attribute name="conn_endpoints">
        <dia:point val="12.8,22.25"/>
        <dia:point val="13.65,28.3"/>
      </dia:attribute>
      <dia:attribute name="curve_distance">
        <dia:real val="-2.1676352696821128"/>
      </dia:attribute>
      <dia:attribute name="end_arrow">
        <dia:enum val="1"/>
      </dia:attribute>
      <dia:attribute name="end_arrow_length">
        <dia:real val="0.5"/>
      </dia:attribute>
      <dia:attribute name="end_arrow_width">
        <dia:real val="0.5"/>
      </dia:attribute>
      <dia:connections>
        <dia:connection handle="0" to="O37" connection="6"/>
        <dia:connection handle="1" to="O31" connection="4"/>
      </dia:connections>
    </dia:object>
    <dia:object type="Standard - Arc" version="0" id="O34">
      <dia:attribute name="obj_pos">
        <dia:point val="8,28.3"/>
      </dia:attribute>
      <dia:attribute name="obj_bb">
        <dia:rectangle val="3.28093,26.1633;8.06416,28.5839"/>
      </dia:attribute>
      <dia:attribute name="conn_endpoints">
        <dia:point val="8,28.3"/>
        <dia:point val="3.5,26.65"/>
      </dia:attribute>
      <dia:attribute name="curve_distance">
        <dia:real val="-0.88849605807250265"/>
      </dia:attribute>
      <dia:attribute name="end_arrow">
        <dia:enum val="1"/>
      </dia:attribute>
      <dia:attribute name="end_arrow_length">
        <dia:real val="0.5"/>
      </dia:attribute>
      <dia:attribute name="end_arrow_width">
        <dia:real val="0.5"/>
      </dia:attribute>
      <dia:connections>
        <dia:connection handle="0" to="O31" connection="3"/>
        <dia:connection handle="1" to="O27" connection="6"/>
      </dia:connections>
    </dia:object>
    <dia:object type="Standard - Arc" version="0" id="O35">
      <dia:attribute name="obj_pos">
        <dia:point val="12.8,22.25"/>
      </dia:attribute>
      <dia:attribute name="obj_bb">
        <dia:rectangle val="10.456,22.1794;12.8706,24.4074"/>
      </dia:attribute>
      <dia:attribute name="conn_endpoints">
        <dia:point val="12.8,22.25"/>
        <dia:point val="10.825,24"/>
      </dia:attribute>
      <dia:attribute name="curve_distance">
        <dia:real val="0.14779594245705094"/>
      </dia:attribute>
      <dia:attribute name="end_arrow">
        <dia:enum val="1"/>
      </dia:attribute>
      <dia:attribute name="end_arrow_length">
        <dia:real val="0.5"/>
      </dia:attribute>
      <dia:attribute name="end_arrow_width">
        <dia:real val="0.5"/>
      </dia:attribute>
      <dia:connections>
        <dia:connection handle="0" to="O37" connection="6"/>
        <dia:connection handle="1" to="O29" connection="1"/>
      </dia:connections>
    </dia:object>
    <dia:object type="Standard - Text" version="1" id="O36">
      <dia:attribute name="obj_pos">
        <dia:point val="18,30"/>
      </dia:attribute>
      <dia:attribute name="obj_bb">
        <dia:rectangle val="18,29.4325;19.9675,30.435"/>
      </dia:attribute>
      <dia:attribute name="text">
        <dia:composite type="text">
          <dia:attribute name="string">
            <dia:string>#task B#</dia:string>
          </dia:attribute>
          <dia:attribute name="font">
            <dia:font family="sans" style="0" name="Helvetica"/>
          </dia:attribute>
          <dia:attribute name="height">
            <dia:real val="0.80000000000000004"/>
          </dia:attribute>
          <dia:attribute name="pos">
            <dia:point val="18,30"/>
          </dia:attribute>
          <dia:attribute name="color">
            <dia:color val="#525252"/>
          </dia:attribute>
          <dia:attribute name="alignment">
            <dia:enum val="0"/>
          </dia:attribute>
        </dia:composite>
      </dia:attribute>
      <dia:attribute name="valign">
        <dia:enum val="3"/>
      </dia:attribute>
    </dia:object>
    <dia:group>
      <dia:object type="Standard - Box" version="0" id="O37">
        <dia:attribute name="obj_pos">
          <dia:point val="10,19"/>
        </dia:attribute>
        <dia:attribute name="obj_bb">
          <dia:rectangle val="9.95,18.95;15.65,22.3"/>
        </dia:attribute>
        <dia:attribute name="elem_corner">
          <dia:point val="10,19"/>
        </dia:attribute>
        <dia:attribute name="elem_width">
          <dia:real val="5.5999999999999979"/>
        </dia:attribute>
        <dia:attribute name="elem_height">
          <dia:real val="3.25"/>
        </dia:attribute>
        <dia:attribute name="show_background">
          <dia:boolean val="true"/>
        </dia:attribute>
      </dia:object>
      <dia:object type="Standard - Text" version="1" id="O38">
        <dia:attribute name="obj_pos">
          <dia:point val="10.75,20.375"/>
        </dia:attribute>
        <dia:attribute name="obj_bb">
          <dia:rectangle val="10.75,19.825;14.75,21.575"/>
        </dia:attribute>
        <dia:attribute name="text">
          <dia:composite type="text">
            <dia:attribute name="string">
              <dia:string>#compression
   method A#</dia:string>
            </dia:attribute>
            <dia:attribute name="font">
              <dia:font family="sans" style="0" name="Helvetica"/>
            </dia:attribute>
            <dia:attribute name="height">
              <dia:real val="0.80000000000000004"/>
            </dia:attribute>
            <dia:attribute name="pos">
              <dia:point val="10.75,20.375"/>
            </dia:attribute>
            <dia:attribute name="color">
              <dia:color val="#000000"/>
            </dia:attribute>
            <dia:attribute name="alignment">
              <dia:enum val="0"/>
            </dia:attribute>
          </dia:composite>
        </dia:attribute>
        <dia:attribute name="valign">
          <dia:enum val="3"/>
        </dia:attribute>
      </dia:object>
    </dia:group>
    <dia:group>
      <dia:object type="Standard - Box" version="0" id="O39">
        <dia:attribute name="obj_pos">
          <dia:point val="20,14"/>
        </dia:attribute>
        <dia:attribute name="obj_bb">
          <dia:rectangle val="19.95,13.95;24,16.35"/>
        </dia:attribute>
        <dia:attribute name="elem_corner">
          <dia:point val="20,14"/>
        </dia:attribute>
        <dia:attribute name="elem_width">
          <dia:real val="3.9499999999999993"/>
        </dia:attribute>
        <dia:attribute name="elem_height">
          <dia:real val="2.2999999999999972"/>
        </dia:attribute>
        <dia:attribute name="show_background">
          <dia:boolean val="true"/>
        </dia:attribute>
      </dia:object>
      <dia:object type="Standard - Text" version="1" id="O40">
        <dia:attribute name="obj_pos">
          <dia:point val="21.05,15.35"/>
        </dia:attribute>
        <dia:attribute name="obj_bb">
          <dia:rectangle val="21.05,14.8;22.85,15.75"/>
        </dia:attribute>
        <dia:attribute name="text">
          <dia:composite type="text">
            <dia:attribute name="string">
              <dia:string>#coder#</dia:string>
            </dia:attribute>
            <dia:attribute name="font">
              <dia:font family="sans" style="0" name="Helvetica"/>
            </dia:attribute>
            <dia:attribute name="height">
              <dia:real val="0.80000000000000004"/>
            </dia:attribute>
            <dia:attribute name="pos">
              <dia:point val="21.05,15.35"/>
            </dia:attribute>
            <dia:attribute name="color">
              <dia:color val="#000000"/>
            </dia:attribute>
            <dia:attribute name="alignment">
              <dia:enum val="0"/>
            </dia:attribute>
          </dia:composite>
        </dia:attribute>
        <dia:attribute name="valign">
          <dia:enum val="3"/>
        </dia:attribute>
      </dia:object>
    </dia:group>
    <dia:object type="Standard - Line" version="0" id="O41">
      <dia:attribute name="obj_pos">
        <dia:point val="21.8,12.25"/>
      </dia:attribute>
      <dia:attribute name="obj_bb">
        <dia:rectangle val="21.4725,12.1953;22.4775,14.0995"/>
      </dia:attribute>
      <dia:attribute name="conn_endpoints">
        <dia:point val="21.8,12.25"/>
        <dia:point val="21.975,14"/>
      </dia:attribute>
      <dia:attribute name="numcp">
        <dia:int val="1"/>
      </dia:attribute>
      <dia:attribute name="end_arrow">
        <dia:enum val="1"/>
      </dia:attribute>
      <dia:attribute name="end_arrow_length">
        <dia:real val="0.5"/>
      </dia:attribute>
      <dia:attribute name="end_arrow_width">
        <dia:real val="0.5"/>
      </dia:attribute>
      <dia:connections>
        <dia:connection handle="0" to="O46" connection="6"/>
        <dia:connection handle="1" to="O39" connection="1"/>
      </dia:connections>
    </dia:object>
    <dia:object type="Standard - Arc" version="0" id="O42">
      <dia:attribute name="obj_pos">
        <dia:point val="29,10.325"/>
      </dia:attribute>
      <dia:attribute name="obj_bb">
        <dia:rectangle val="24.5161,9.953;29.0533,11.1272"/>
      </dia:attribute>
      <dia:attribute name="conn_endpoints">
        <dia:point val="29,10.325"/>
        <dia:point val="24.6,10.625"/>
      </dia:attribute>
      <dia:attribute name="curve_distance">
        <dia:real val="0.46029497639625611"/>
      </dia:attribute>
      <dia:attribute name="end_arrow">
        <dia:enum val="1"/>
      </dia:attribute>
      <dia:attribute name="end_arrow_length">
        <dia:real val="0.5"/>
      </dia:attribute>
      <dia:attribute name="end_arrow_width">
        <dia:real val="0.5"/>
      </dia:attribute>
      <dia:connections>
        <dia:connection handle="0" to="O52" connection="3"/>
        <dia:connection handle="1" to="O46" connection="4"/>
      </dia:connections>
    </dia:object>
    <dia:object type="Standard - Arc" version="0" id="O43">
      <dia:attribute name="obj_pos">
        <dia:point val="23.95,15.15"/>
      </dia:attribute>
      <dia:attribute name="obj_bb">
        <dia:rectangle val="23.8843,15.0843;29.2437,17.804"/>
      </dia:attribute>
      <dia:attribute name="conn_endpoints">
        <dia:point val="23.95,15.15"/>
        <dia:point val="29,17.325"/>
      </dia:attribute>
      <dia:attribute name="curve_distance">
        <dia:real val="-0.42580060144666076"/>
      </dia:attribute>
      <dia:attribute name="end_arrow">
        <dia:enum val="1"/>
      </dia:attribute>
      <dia:attribute name="end_arrow_length">
        <dia:real val="0.5"/>
      </dia:attribute>
      <dia:attribute name="end_arrow_width">
        <dia:real val="0.5"/>
      </dia:attribute>
      <dia:connections>
        <dia:connection handle="0" to="O39" connection="4"/>
        <dia:connection handle="1" to="O54" connection="3"/>
      </dia:connections>
    </dia:object>
    <dia:object type="Standard - Line" version="0" id="O44">
      <dia:attribute name="obj_pos">
        <dia:point val="40,28"/>
      </dia:attribute>
      <dia:attribute name="obj_bb">
        <dia:rectangle val="39.9293,26.6364;41.3278,28.0707"/>
      </dia:attribute>
      <dia:attribute name="conn_endpoints">
        <dia:point val="40,28"/>
        <dia:point val="41.2571,26.7071"/>
      </dia:attribute>
      <dia:attribute name="numcp">
        <dia:int val="1"/>
      </dia:attribute>
      <dia:attribute name="line_color">
        <dia:color val="#525252"/>
      </dia:attribute>
      <dia:attribute name="line_style">
        <dia:enum val="4"/>
      </dia:attribute>
      <dia:connections>
        <dia:connection handle="1" to="O0" connection="7"/>
      </dia:connections>
    </dia:object>
    <dia:object type="Standard - Text" version="1" id="O45">
      <dia:attribute name="obj_pos">
        <dia:point val="38,29"/>
      </dia:attribute>
      <dia:attribute name="obj_bb">
        <dia:rectangle val="38,28.4325;39.9675,29.435"/>
      </dia:attribute>
      <dia:attribute name="text">
        <dia:composite type="text">
          <dia:attribute name="string">
            <dia:string>#task C#</dia:string>
          </dia:attribute>
          <dia:attribute name="font">
            <dia:font family="sans" style="0" name="Helvetica"/>
          </dia:attribute>
          <dia:attribute name="height">
            <dia:real val="0.80000000000000004"/>
          </dia:attribute>
          <dia:attribute name="pos">
            <dia:point val="38,29"/>
          </dia:attribute>
          <dia:attribute name="color">
            <dia:color val="#525252"/>
          </dia:attribute>
          <dia:attribute name="alignment">
            <dia:enum val="0"/>
          </dia:attribute>
        </dia:composite>
      </dia:attribute>
      <dia:attribute name="valign">
        <dia:enum val="3"/>
      </dia:attribute>
    </dia:object>
    <dia:group>
      <dia:object type="Standard - Box" version="0" id="O46">
        <dia:attribute name="obj_pos">
          <dia:point val="19,9"/>
        </dia:attribute>
        <dia:attribute name="obj_bb">
          <dia:rectangle val="18.95,8.95;24.65,12.3"/>
        </dia:attribute>
        <dia:attribute name="elem_corner">
          <dia:point val="19,9"/>
        </dia:attribute>
        <dia:attribute name="elem_width">
          <dia:real val="5.5999999999999979"/>
        </dia:attribute>
        <dia:attribute name="elem_height">
          <dia:real val="3.25"/>
        </dia:attribute>
        <dia:attribute name="show_background">
          <dia:boolean val="true"/>
        </dia:attribute>
      </dia:object>
      <dia:object type="Standard - Text" version="1" id="O47">
        <dia:attribute name="obj_pos">
          <dia:point val="19.75,10.375"/>
        </dia:attribute>
        <dia:attribute name="obj_bb">
          <dia:rectangle val="19.75,9.825;23.75,11.575"/>
        </dia:attribute>
        <dia:attribute name="text">
          <dia:composite type="text">
            <dia:attribute name="string">
              <dia:string>#compression
   method A#</dia:string>
            </dia:attribute>
            <dia:attribute name="font">
              <dia:font family="sans" style="0" name="Helvetica"/>
            </dia:attribute>
            <dia:attribute name="height">
              <dia:real val="0.80000000000000004"/>
            </dia:attribute>
            <dia:attribute name="pos">
              <dia:point val="19.75,10.375"/>
            </dia:attribute>
            <dia:attribute name="color">
              <dia:color val="#000000"/>
            </dia:attribute>
            <dia:attribute name="alignment">
              <dia:enum val="0"/>
            </dia:attribute>
          </dia:composite>
        </dia:attribute>
        <dia:attribute name="valign">
          <dia:enum val="3"/>
        </dia:attribute>
      </dia:object>
    </dia:group>
    <dia:group>
      <dia:object type="Standard - Box" version="0" id="O48">
        <dia:attribute name="obj_pos">
          <dia:point val="20,23"/>
        </dia:attribute>
        <dia:attribute name="obj_bb">
          <dia:rectangle val="19.95,22.95;24,25.35"/>
        </dia:attribute>
        <dia:attribute name="elem_corner">
          <dia:point val="20,23"/>
        </dia:attribute>
        <dia:attribute name="elem_width">
          <dia:real val="3.9499999999999993"/>
        </dia:attribute>
        <dia:attribute name="elem_height">
          <dia:real val="2.2999999999999972"/>
        </dia:attribute>
        <dia:attribute name="show_background">
          <dia:boolean val="true"/>
        </dia:attribute>
      </dia:object>
      <dia:object type="Standard - Text" version="1" id="O49">
        <dia:attribute name="obj_pos">
          <dia:point val="21.05,24.35"/>
        </dia:attribute>
        <dia:attribute name="obj_bb">
          <dia:rectangle val="21.05,23.8;22.85,24.75"/>
        </dia:attribute>
        <dia:attribute name="text">
          <dia:composite type="text">
            <dia:attribute name="string">
              <dia:string>#coder#</dia:string>
            </dia:attribute>
            <dia:attribute name="font">
              <dia:font family="sans" style="0" name="Helvetica"/>
            </dia:attribute>
            <dia:attribute name="height">
              <dia:real val="0.80000000000000004"/>
            </dia:attribute>
            <dia:attribute name="pos">
              <dia:point val="21.05,24.35"/>
            </dia:attribute>
            <dia:attribute name="color">
              <dia:color val="#000000"/>
            </dia:attribute>
            <dia:attribute name="alignment">
              <dia:enum val="0"/>
            </dia:attribute>
          </dia:composite>
        </dia:attribute>
        <dia:attribute name="valign">
          <dia:enum val="3"/>
        </dia:attribute>
      </dia:object>
    </dia:group>
    <dia:object type="Standard - Line" version="0" id="O50">
      <dia:attribute name="obj_pos">
        <dia:point val="21.8,21.25"/>
      </dia:attribute>
      <dia:attribute name="obj_bb">
        <dia:rectangle val="21.4725,21.1953;22.4775,23.0995"/>
      </dia:attribute>
      <dia:attribute name="conn_endpoints">
        <dia:point val="21.8,21.25"/>
        <dia:point val="21.975,23"/>
      </dia:attribute>
      <dia:attribute name="numcp">
        <dia:int val="1"/>
      </dia:attribute>
      <dia:attribute name="end_arrow">
        <dia:enum val="1"/>
      </dia:attribute>
      <dia:attribute name="end_arrow_length">
        <dia:real val="0.5"/>
      </dia:attribute>
      <dia:attribute name="end_arrow_width">
        <dia:real val="0.5"/>
      </dia:attribute>
      <dia:connections>
        <dia:connection handle="0" to="O59" connection="6"/>
        <dia:connection handle="1" to="O48" connection="1"/>
      </dia:connections>
    </dia:object>
    <dia:object type="Standard - Arc" version="0" id="O51">
      <dia:attribute name="obj_pos">
        <dia:point val="23.95,24.15"/>
      </dia:attribute>
      <dia:attribute name="obj_bb">
        <dia:rectangle val="23.8983,23.8236;29.0673,25.0337"/>
      </dia:attribute>
      <dia:attribute name="conn_endpoints">
        <dia:point val="23.95,24.15"/>
        <dia:point val="29,24.325"/>
      </dia:attribute>
      <dia:attribute name="curve_distance">
        <dia:real val="0.74386042759400473"/>
      </dia:attribute>
      <dia:attribute name="end_arrow">
        <dia:enum val="1"/>
      </dia:attribute>
      <dia:attribute name="end_arrow_length">
        <dia:real val="0.5"/>
      </dia:attribute>
      <dia:attribute name="end_arrow_width">
        <dia:real val="0.5"/>
      </dia:attribute>
      <dia:connections>
        <dia:connection handle="0" to="O48" connection="4"/>
        <dia:connection handle="1" to="O56" connection="3"/>
      </dia:connections>
    </dia:object>
    <dia:group>
      <dia:object type="Standard - Box" version="0" id="O52">
        <dia:attribute name="obj_pos">
          <dia:point val="29,9"/>
        </dia:attribute>
        <dia:attribute name="obj_bb">
          <dia:rectangle val="28.95,8.95;34.05,11.7"/>
        </dia:attribute>
        <dia:attribute name="elem_corner">
          <dia:point val="29,9"/>
        </dia:attribute>
        <dia:attribute name="elem_width">
          <dia:real val="5"/>
        </dia:attribute>
        <dia:attribute name="elem_height">
          <dia:real val="2.6500000000000021"/>
        </dia:attribute>
        <dia:attribute name="show_background">
          <dia:boolean val="true"/>
        </dia:attribute>
      </dia:object>
      <dia:object type="Standard - Text" version="1" id="O53">
        <dia:attribute name="obj_pos">
          <dia:point val="29.75,10.6"/>
        </dia:attribute>
        <dia:attribute name="obj_bb">
          <dia:rectangle val="29.75,10.05;33.65,11"/>
        </dia:attribute>
        <dia:attribute name="text">
          <dia:composite type="text">
            <dia:attribute name="string">
              <dia:string>#I/O module 5#</dia:string>
            </dia:attribute>
            <dia:attribute name="font">
              <dia:font family="sans" style="0" name="Helvetica"/>
            </dia:attribute>
            <dia:attribute name="height">
              <dia:real val="0.80000000000000004"/>
            </dia:attribute>
            <dia:attribute name="pos">
              <dia:point val="29.75,10.6"/>
            </dia:attribute>
            <dia:attribute name="color">
              <dia:color val="#000000"/>
            </dia:attribute>
            <dia:attribute name="alignment">
              <dia:enum val="0"/>
            </dia:attribute>
          </dia:composite>
        </dia:attribute>
        <dia:attribute name="valign">
          <dia:enum val="3"/>
        </dia:attribute>
      </dia:object>
    </dia:group>
    <dia:group>
      <dia:object type="Standard - Box" version="0" id="O54">
        <dia:attribute name="obj_pos">
          <dia:point val="29,16"/>
        </dia:attribute>
        <dia:attribute name="obj_bb">
          <dia:rectangle val="28.95,15.95;34.05,18.7"/>
        </dia:attribute>
        <dia:attribute name="elem_corner">
          <dia:point val="29,16"/>
        </dia:attribute>
        <dia:attribute name="elem_width">
          <dia:real val="5"/>
        </dia:attribute>
        <dia:attribute name="elem_height">
          <dia:real val="2.6500000000000021"/>
        </dia:attribute>
        <dia:attribute name="show_background">
          <dia:boolean val="true"/>
        </dia:attribute>
      </dia:object>
      <dia:object type="Standard - Text" version="1" id="O55">
        <dia:attribute name="obj_pos">
          <dia:point val="29.75,17.6"/>
        </dia:attribute>
        <dia:attribute name="obj_bb">
          <dia:rectangle val="29.75,17.05;33.65,18"/>
        </dia:attribute>
        <dia:attribute name="text">
          <dia:composite type="text">
            <dia:attribute name="string">
              <dia:string>#I/O module 6#</dia:string>
            </dia:attribute>
            <dia:attribute name="font">
              <dia:font family="sans" style="0" name="Helvetica"/>
            </dia:attribute>
            <dia:attribute name="height">
              <dia:real val="0.80000000000000004"/>
            </dia:attribute>
            <dia:attribute name="pos">
              <dia:point val="29.75,17.6"/>
            </dia:attribute>
            <dia:attribute name="color">
              <dia:color val="#000000"/>
            </dia:attribute>
            <dia:attribute name="alignment">
              <dia:enum val="0"/>
            </dia:attribute>
          </dia:composite>
        </dia:attribute>
        <dia:attribute name="valign">
          <dia:enum val="3"/>
        </dia:attribute>
      </dia:object>
    </dia:group>
    <dia:group>
      <dia:object type="Standard - Box" version="0" id="O56">
        <dia:attribute name="obj_pos">
          <dia:point val="29,23"/>
        </dia:attribute>
        <dia:attribute name="obj_bb">
          <dia:rectangle val="28.95,22.95;34.05,25.7"/>
        </dia:attribute>
        <dia:attribute name="elem_corner">
          <dia:point val="29,23"/>
        </dia:attribute>
        <dia:attribute name="elem_width">
          <dia:real val="5"/>
        </dia:attribute>
        <dia:attribute name="elem_height">
          <dia:real val="2.6500000000000021"/>
        </dia:attribute>
        <dia:attribute name="show_background">
          <dia:boolean val="true"/>
        </dia:attribute>
      </dia:object>
      <dia:object type="Standard - Text" version="1" id="O57">
        <dia:attribute name="obj_pos">
          <dia:point val="29.75,24.6"/>
        </dia:attribute>
        <dia:attribute name="obj_bb">
          <dia:rectangle val="29.75,24.05;33.65,25"/>
        </dia:attribute>
        <dia:attribute name="text">
          <dia:composite type="text">
            <dia:attribute name="string">
              <dia:string>#I/O module 7#</dia:string>
            </dia:attribute>
            <dia:attribute name="font">
              <dia:font family="sans" style="0" name="Helvetica"/>
            </dia:attribute>
            <dia:attribute name="height">
              <dia:real val="0.80000000000000004"/>
            </dia:attribute>
            <dia:attribute name="pos">
              <dia:point val="29.75,24.6"/>
            </dia:attribute>
            <dia:attribute name="color">
              <dia:color val="#000000"/>
            </dia:attribute>
            <dia:attribute name="alignment">
              <dia:enum val="0"/>
            </dia:attribute>
          </dia:composite>
        </dia:attribute>
        <dia:attribute name="valign">
          <dia:enum val="3"/>
        </dia:attribute>
      </dia:object>
    </dia:group>
    <dia:object type="Standard - Arc" version="0" id="O58">
      <dia:attribute name="obj_pos">
        <dia:point val="29,17.325"/>
      </dia:attribute>
      <dia:attribute name="obj_bb">
        <dia:rectangle val="24.3241,17.2575;29.0675,20.0913"/>
      </dia:attribute>
      <dia:attribute name="conn_endpoints">
        <dia:point val="29,17.325"/>
        <dia:point val="24.6,19.625"/>
      </dia:attribute>
      <dia:attribute name="curve_distance">
        <dia:real val="-0.51525987082073887"/>
      </dia:attribute>
      <dia:attribute name="end_arrow">
        <dia:enum val="1"/>
      </dia:attribute>
      <dia:attribute name="end_arrow_length">
        <dia:real val="0.5"/>
      </dia:attribute>
      <dia:attribute name="end_arrow_width">
        <dia:real val="0.5"/>
      </dia:attribute>
      <dia:connections>
        <dia:connection handle="0" to="O54" connection="3"/>
        <dia:connection handle="1" to="O59" connection="4"/>
      </dia:connections>
    </dia:object>
    <dia:group>
      <dia:object type="Standard - Box" version="0" id="O59">
        <dia:attribute name="obj_pos">
          <dia:point val="19,18"/>
        </dia:attribute>
        <dia:attribute name="obj_bb">
          <dia:rectangle val="18.95,17.95;24.65,21.3"/>
        </dia:attribute>
        <dia:attribute name="elem_corner">
          <dia:point val="19,18"/>
        </dia:attribute>
        <dia:attribute name="elem_width">
          <dia:real val="5.5999999999999979"/>
        </dia:attribute>
        <dia:attribute name="elem_height">
          <dia:real val="3.25"/>
        </dia:attribute>
        <dia:attribute name="show_background">
          <dia:boolean val="true"/>
        </dia:attribute>
      </dia:object>
      <dia:object type="Standard - Text" version="1" id="O60">
        <dia:attribute name="obj_pos">
          <dia:point val="19.75,19.375"/>
        </dia:attribute>
        <dia:attribute name="obj_bb">
          <dia:rectangle val="19.75,18.825;23.75,20.575"/>
        </dia:attribute>
        <dia:attribute name="text">
          <dia:composite type="text">
            <dia:attribute name="string">
              <dia:string>#compression
   method B#</dia:string>
            </dia:attribute>
            <dia:attribute name="font">
              <dia:font family="sans" style="0" name="Helvetica"/>
            </dia:attribute>
            <dia:attribute name="height">
              <dia:real val="0.80000000000000004"/>
            </dia:attribute>
            <dia:attribute name="pos">
              <dia:point val="19.75,19.375"/>
            </dia:attribute>
            <dia:attribute name="color">
              <dia:color val="#000000"/>
            </dia:attribute>
            <dia:attribute name="alignment">
              <dia:enum val="0"/>
            </dia:attribute>
          </dia:composite>
        </dia:attribute>
        <dia:attribute name="valign">
          <dia:enum val="3"/>
        </dia:attribute>
      </dia:object>
    </dia:group>
    <dia:group>
      <dia:object type="Standard - Ellipse" version="0" id="O61">
        <dia:attribute name="obj_pos">
          <dia:point val="-5.675,9.205"/>
        </dia:attribute>
        <dia:attribute name="obj_bb">
          <dia:rectangle val="-5.725,9.155;-1.175,11.405"/>
        </dia:attribute>
        <dia:attribute name="elem_corner">
          <dia:point val="-5.675,9.205"/>
        </dia:attribute>
        <dia:attribute name="elem_width">
          <dia:real val="4.4500000000000011"/>
        </dia:attribute>
        <dia:attribute name="elem_height">
          <dia:real val="2.1499999999999915"/>
        </dia:attribute>
      </dia:object>
      <dia:object type="Standard - Text" version="1" id="O62">
        <dia:attribute name="obj_pos">
          <dia:point val="-4.66561,10.495"/>
        </dia:attribute>
        <dia:attribute name="obj_bb">
          <dia:rectangle val="-4.66561,9.945;-2.21561,10.895"/>
        </dia:attribute>
        <dia:attribute name="text">
          <dia:composite type="text">
            <dia:attribute name="string">
              <dia:string>#memory#</dia:string>
            </dia:attribute>
            <dia:attribute name="font">
              <dia:font family="sans" style="0" name="Helvetica"/>
            </dia:attribute>
            <dia:attribute name="height">
              <dia:real val="0.80000000000000004"/>
            </dia:attribute>
            <dia:attribute name="pos">
              <dia:point val="-4.66561,10.495"/>
            </dia:attribute>
            <dia:attribute name="color">
              <dia:color val="#000000"/>
            </dia:attribute>
            <dia:attribute name="alignment">
              <dia:enum val="0"/>
            </dia:attribute>
          </dia:composite>
        </dia:attribute>
        <dia:attribute name="valign">
          <dia:enum val="3"/>
        </dia:attribute>
      </dia:object>
    </dia:group>
    <dia:group>
      <dia:object type="Standard - Ellipse" version="0" id="O63">
        <dia:attribute name="obj_pos">
          <dia:point val="-5.425,13.305"/>
        </dia:attribute>
        <dia:attribute name="obj_bb">
          <dia:rectangle val="-5.475,13.255;-0.925,15.505"/>
        </dia:attribute>
        <dia:attribute name="elem_corner">
          <dia:point val="-5.425,13.305"/>
        </dia:attribute>
        <dia:attribute name="elem_width">
          <dia:real val="4.4500000000000011"/>
        </dia:attribute>
        <dia:attribute name="elem_height">
          <dia:real val="2.1499999999999915"/>
        </dia:attribute>
      </dia:object>
      <dia:object type="Standard - Text" version="1" id="O64">
        <dia:attribute name="obj_pos">
          <dia:point val="-4.51561,14.595"/>
        </dia:attribute>
        <dia:attribute name="obj_bb">
          <dia:rectangle val="-4.51561,14.045;-2.06561,14.995"/>
        </dia:attribute>
        <dia:attribute name="text">
          <dia:composite type="text">
            <dia:attribute name="string">
              <dia:string>#memory#</dia:string>
            </dia:attribute>
            <dia:attribute name="font">
              <dia:font family="sans" style="0" name="Helvetica"/>
            </dia:attribute>
            <dia:attribute name="height">
              <dia:real val="0.80000000000000004"/>
            </dia:attribute>
            <dia:attribute name="pos">
              <dia:point val="-4.51561,14.595"/>
            </dia:attribute>
            <dia:attribute name="color">
              <dia:color val="#000000"/>
            </dia:attribute>
            <dia:attribute name="alignment">
              <dia:enum val="0"/>
            </dia:attribute>
          </dia:composite>
        </dia:attribute>
        <dia:attribute name="valign">
          <dia:enum val="3"/>
        </dia:attribute>
      </dia:object>
    </dia:group>
    <dia:group>
      <dia:object type="Standard - Ellipse" version="0" id="O65">
        <dia:attribute name="obj_pos">
          <dia:point val="-5.425,20.155"/>
        </dia:attribute>
        <dia:attribute name="obj_bb">
          <dia:rectangle val="-5.475,20.105;-0.925,22.355"/>
        </dia:attribute>
        <dia:attribute name="elem_corner">
          <dia:point val="-5.425,20.155"/>
        </dia:attribute>
        <dia:attribute name="elem_width">
          <dia:real val="4.4500000000000011"/>
        </dia:attribute>
        <dia:attribute name="elem_height">
          <dia:real val="2.1499999999999915"/>
        </dia:attribute>
      </dia:object>
      <dia:object type="Standard - Text" version="1" id="O66">
        <dia:attribute name="obj_pos">
          <dia:point val="-3.91561,21.395"/>
        </dia:attribute>
        <dia:attribute name="obj_bb">
          <dia:rectangle val="-3.91561,20.845;-2.41561,21.795"/>
        </dia:attribute>
        <dia:attribute name="text">
          <dia:composite type="text">
            <dia:attribute name="string">
              <dia:string>#file A#</dia:string>
            </dia:attribute>
            <dia:attribute name="font">
              <dia:font family="sans" style="0" name="Helvetica"/>
            </dia:attribute>
            <dia:attribute name="height">
              <dia:real val="0.80000000000000004"/>
            </dia:attribute>
            <dia:attribute name="pos">
              <dia:point val="-3.91561,21.395"/>
            </dia:attribute>
            <dia:attribute name="color">
              <dia:color val="#000000"/>
            </dia:attribute>
            <dia:attribute name="alignment">
              <dia:enum val="0"/>
            </dia:attribute>
          </dia:composite>
        </dia:attribute>
        <dia:attribute name="valign">
          <dia:enum val="3"/>
        </dia:attribute>
      </dia:object>
    </dia:group>
    <dia:group>
      <dia:object type="Standard - Ellipse" version="0" id="O67">
        <dia:attribute name="obj_pos">
          <dia:point val="-5.525,24.255"/>
        </dia:attribute>
        <dia:attribute name="obj_bb">
          <dia:rectangle val="-5.575,24.205;-1.025,26.455"/>
        </dia:attribute>
        <dia:attribute name="elem_corner">
          <dia:point val="-5.525,24.255"/>
        </dia:attribute>
        <dia:attribute name="elem_width">
          <dia:real val="4.4500000000000011"/>
        </dia:attribute>
        <dia:attribute name="elem_height">
          <dia:real val="2.1499999999999915"/>
        </dia:attribute>
      </dia:object>
      <dia:object type="Standard - Text" version="1" id="O68">
        <dia:attribute name="obj_pos">
          <dia:point val="-4.01561,25.495"/>
        </dia:attribute>
        <dia:attribute name="obj_bb">
          <dia:rectangle val="-4.01561,24.945;-2.51561,25.895"/>
        </dia:attribute>
        <dia:attribute name="text">
          <dia:composite type="text">
            <dia:attribute name="string">
              <dia:string>#file B#</dia:string>
            </dia:attribute>
            <dia:attribute name="font">
              <dia:font family="sans" style="0" name="Helvetica"/>
            </dia:attribute>
            <dia:attribute name="height">
              <dia:real val="0.80000000000000004"/>
            </dia:attribute>
            <dia:attribute name="pos">
              <dia:point val="-4.01561,25.495"/>
            </dia:attribute>
            <dia:attribute name="color">
              <dia:color val="#000000"/>
            </dia:attribute>
            <dia:attribute name="alignment">
              <dia:enum val="0"/>
            </dia:attribute>
          </dia:composite>
        </dia:attribute>
        <dia:attribute name="valign">
          <dia:enum val="3"/>
        </dia:attribute>
      </dia:object>
    </dia:group>
    <dia:group>
      <dia:object type="Standard - Ellipse" version="0" id="O69">
        <dia:attribute name="obj_pos">
          <dia:point val="35.975,9.305"/>
        </dia:attribute>
        <dia:attribute name="obj_bb">
          <dia:rectangle val="35.925,9.255;40.475,11.505"/>
        </dia:attribute>
        <dia:attribute name="elem_corner">
          <dia:point val="35.975,9.305"/>
        </dia:attribute>
        <dia:attribute name="elem_width">
          <dia:real val="4.4500000000000011"/>
        </dia:attribute>
        <dia:attribute name="elem_height">
          <dia:real val="2.1499999999999915"/>
        </dia:attribute>
      </dia:object>
      <dia:object type="Standard - Text" version="1" id="O70">
        <dia:attribute name="obj_pos">
          <dia:point val="37.4344,10.595"/>
        </dia:attribute>
        <dia:attribute name="obj_bb">
          <dia:rectangle val="37.4344,10.045;38.9344,10.995"/>
        </dia:attribute>
        <dia:attribute name="text">
          <dia:composite type="text">
            <dia:attribute name="string">
              <dia:string>#file C#</dia:string>
            </dia:attribute>
            <dia:attribute name="font">
              <dia:font family="sans" style="0" name="Helvetica"/>
            </dia:attribute>
            <dia:attribute name="height">
              <dia:real val="0.80000000000000004"/>
            </dia:attribute>
            <dia:attribute name="pos">
              <dia:point val="37.4344,10.595"/>
            </dia:attribute>
            <dia:attribute name="color">
              <dia:color val="#000000"/>
            </dia:attribute>
            <dia:attribute name="alignment">
              <dia:enum val="0"/>
            </dia:attribute>
          </dia:composite>
        </dia:attribute>
        <dia:attribute name="valign">
          <dia:enum val="3"/>
        </dia:attribute>
      </dia:object>
    </dia:group>
    <dia:group>
      <dia:object type="Standard - Ellipse" version="0" id="O71">
        <dia:attribute name="obj_pos">
          <dia:point val="36.125,23.255"/>
        </dia:attribute>
        <dia:attribute name="obj_bb">
          <dia:rectangle val="36.075,23.205;40.625,25.455"/>
        </dia:attribute>
        <dia:attribute name="elem_corner">
          <dia:point val="36.125,23.255"/>
        </dia:attribute>
        <dia:attribute name="elem_width">
          <dia:real val="4.4500000000000011"/>
        </dia:attribute>
        <dia:attribute name="elem_height">
          <dia:real val="2.1499999999999915"/>
        </dia:attribute>
      </dia:object>
      <dia:object type="Standard - Text" version="1" id="O72">
        <dia:attribute name="obj_pos">
          <dia:point val="37.2344,24.495"/>
        </dia:attribute>
        <dia:attribute name="obj_bb">
          <dia:rectangle val="37.2344,23.945;39.6844,24.895"/>
        </dia:attribute>
        <dia:attribute name="text">
          <dia:composite type="text">
            <dia:attribute name="string">
              <dia:string>#memory#</dia:string>
            </dia:attribute>
            <dia:attribute name="font">
              <dia:font family="sans" style="0" name="Helvetica"/>
            </dia:attribute>
            <dia:attribute name="height">
              <dia:real val="0.80000000000000004"/>
            </dia:attribute>
            <dia:attribute name="pos">
              <dia:point val="37.2344,24.495"/>
            </dia:attribute>
            <dia:attribute name="color">
              <dia:color val="#000000"/>
            </dia:attribute>
            <dia:attribute name="alignment">
              <dia:enum val="0"/>
            </dia:attribute>
          </dia:composite>
        </dia:attribute>
        <dia:attribute name="valign">
          <dia:enum val="3"/>
        </dia:attribute>
      </dia:object>
    </dia:group>
  </dia:layer>
</dia:diagram>
