<?xml version="1.0" encoding="UTF-8"?>
<dia:diagram xmlns:dia="http://www.lysator.liu.se/~alla/dia/">
  <dia:diagramdata>
    <dia:attribute name="background">
      <dia:color val="#ffffff"/>
    </dia:attribute>
    <dia:attribute name="pagebreak">
      <dia:color val="#000099"/>
    </dia:attribute>
    <dia:attribute name="paper">
      <dia:composite type="paper">
        <dia:attribute name="name">
          <dia:string>#A4#</dia:string>
        </dia:attribute>
        <dia:attribute name="tmargin">
          <dia:real val="2.8222000598907471"/>
        </dia:attribute>
        <dia:attribute name="bmargin">
          <dia:real val="2.8222000598907471"/>
        </dia:attribute>
        <dia:attribute name="lmargin">
          <dia:real val="2.8222000598907471"/>
        </dia:attribute>
        <dia:attribute name="rmargin">
          <dia:real val="2.8222000598907471"/>
        </dia:attribute>
        <dia:attribute name="is_portrait">
          <dia:boolean val="true"/>
        </dia:attribute>
        <dia:attribute name="scaling">
          <dia:real val="1"/>
        </dia:attribute>
        <dia:attribute name="fitto">
          <dia:boolean val="false"/>
        </dia:attribute>
      </dia:composite>
    </dia:attribute>
    <dia:attribute name="grid">
      <dia:composite type="grid">
        <dia:attribute name="width_x">
          <dia:real val="1"/>
        </dia:attribute>
        <dia:attribute name="width_y">
          <dia:real val="1"/>
        </dia:attribute>
        <dia:attribute name="visible_x">
          <dia:int val="1"/>
        </dia:attribute>
        <dia:attribute name="visible_y">
          <dia:int val="1"/>
        </dia:attribute>
        <dia:composite type="color"/>
      </dia:composite>
    </dia:attribute>
    <dia:attribute name="color">
      <dia:color val="#d8e5e5"/>
    </dia:attribute>
    <dia:attribute name="guides">
      <dia:composite type="guides">
        <dia:attribute name="hguides"/>
        <dia:attribute name="vguides"/>
      </dia:composite>
    </dia:attribute>
  </dia:diagramdata>
  <dia:layer name="Background" visible="true">
    <dia:object type="Standard - Box" version="0" id="O0">
      <dia:attribute name="obj_pos">
        <dia:point val="1,3"/>
      </dia:attribute>
      <dia:attribute name="obj_bb">
        <dia:rectangle val="0.95,2.95;25.05,22.05"/>
      </dia:attribute>
      <dia:attribute name="elem_corner">
        <dia:point val="1,3"/>
      </dia:attribute>
      <dia:attribute name="elem_width">
        <dia:real val="24"/>
      </dia:attribute>
      <dia:attribute name="elem_height">
        <dia:real val="19"/>
      </dia:attribute>
      <dia:attribute name="border_color">
        <dia:color val="#525252"/>
      </dia:attribute>
      <dia:attribute name="show_background">
        <dia:boolean val="false"/>
      </dia:attribute>
      <dia:attribute name="line_style">
        <dia:enum val="4"/>
      </dia:attribute>
      <dia:attribute name="corner_radius">
        <dia:real val="1"/>
      </dia:attribute>
    </dia:object>
    <dia:object type="Standard - Text" version="1" id="O1">
      <dia:attribute name="obj_pos">
        <dia:point val="2,2"/>
      </dia:attribute>
      <dia:attribute name="obj_bb">
        <dia:rectangle val="2,1.4325;4.6175,2.435"/>
      </dia:attribute>
      <dia:attribute name="text">
        <dia:composite type="text">
          <dia:attribute name="string">
            <dia:string>#blocking#</dia:string>
          </dia:attribute>
          <dia:attribute name="font">
            <dia:font family="sans" style="0" name="Helvetica"/>
          </dia:attribute>
          <dia:attribute name="height">
            <dia:real val="0.80000000000000004"/>
          </dia:attribute>
          <dia:attribute name="pos">
            <dia:point val="2,2"/>
          </dia:attribute>
          <dia:attribute name="color">
            <dia:color val="#525252"/>
          </dia:attribute>
          <dia:attribute name="alignment">
            <dia:enum val="0"/>
          </dia:attribute>
        </dia:composite>
      </dia:attribute>
      <dia:attribute name="valign">
        <dia:enum val="3"/>
      </dia:attribute>
    </dia:object>
    <dia:group>
      <dia:object type="Standard - Box" version="0" id="O2">
        <dia:attribute name="obj_pos">
          <dia:point val="10,4"/>
        </dia:attribute>
        <dia:attribute name="obj_bb">
          <dia:rectangle val="9.95,3.95;14.85,6.43"/>
        </dia:attribute>
        <dia:attribute name="elem_corner">
          <dia:point val="10,4"/>
        </dia:attribute>
        <dia:attribute name="elem_width">
          <dia:real val="4.8000000000000025"/>
        </dia:attribute>
        <dia:attribute name="elem_height">
          <dia:real val="2.3799999999999999"/>
        </dia:attribute>
        <dia:attribute name="show_background">
          <dia:boolean val="true"/>
        </dia:attribute>
      </dia:object>
      <dia:object type="Standard - Text" version="1" id="O3">
        <dia:attribute name="obj_pos">
          <dia:point val="10.325,4.95"/>
        </dia:attribute>
        <dia:attribute name="obj_bb">
          <dia:rectangle val="10.325,4.4;14.325,6.15"/>
        </dia:attribute>
        <dia:attribute name="text">
          <dia:composite type="text">
            <dia:attribute name="string">
              <dia:string>#   libexcom
main module#</dia:string>
            </dia:attribute>
            <dia:attribute name="font">
              <dia:font family="sans" style="0" name="Helvetica"/>
            </dia:attribute>
            <dia:attribute name="height">
              <dia:real val="0.80000000000000004"/>
            </dia:attribute>
            <dia:attribute name="pos">
              <dia:point val="10.325,4.95"/>
            </dia:attribute>
            <dia:attribute name="color">
              <dia:color val="#000000"/>
            </dia:attribute>
            <dia:attribute name="alignment">
              <dia:enum val="0"/>
            </dia:attribute>
          </dia:composite>
        </dia:attribute>
        <dia:attribute name="valign">
          <dia:enum val="3"/>
        </dia:attribute>
      </dia:object>
    </dia:group>
    <dia:group>
      <dia:object type="Standard - Box" version="0" id="O4">
        <dia:attribute name="obj_pos">
          <dia:point val="18,4"/>
        </dia:attribute>
        <dia:attribute name="obj_bb">
          <dia:rectangle val="17.95,3.95;24.1,6.23"/>
        </dia:attribute>
        <dia:attribute name="elem_corner">
          <dia:point val="18,4"/>
        </dia:attribute>
        <dia:attribute name="elem_width">
          <dia:real val="6.0500000000000007"/>
        </dia:attribute>
        <dia:attribute name="elem_height">
          <dia:real val="2.1799999999999997"/>
        </dia:attribute>
        <dia:attribute name="show_background">
          <dia:boolean val="true"/>
        </dia:attribute>
      </dia:object>
      <dia:object type="Standard - Text" version="1" id="O5">
        <dia:attribute name="obj_pos">
          <dia:point val="18.35,4.925"/>
        </dia:attribute>
        <dia:attribute name="obj_bb">
          <dia:rectangle val="18.35,4.375;23.65,6.125"/>
        </dia:attribute>
        <dia:attribute name="text">
          <dia:composite type="text">
            <dia:attribute name="string">
              <dia:string>#(de)compression
         unit#</dia:string>
            </dia:attribute>
            <dia:attribute name="font">
              <dia:font family="sans" style="0" name="Helvetica"/>
            </dia:attribute>
            <dia:attribute name="height">
              <dia:real val="0.80000000000000004"/>
            </dia:attribute>
            <dia:attribute name="pos">
              <dia:point val="18.35,4.925"/>
            </dia:attribute>
            <dia:attribute name="color">
              <dia:color val="#000000"/>
            </dia:attribute>
            <dia:attribute name="alignment">
              <dia:enum val="0"/>
            </dia:attribute>
          </dia:composite>
        </dia:attribute>
        <dia:attribute name="valign">
          <dia:enum val="3"/>
        </dia:attribute>
      </dia:object>
    </dia:group>
    <dia:group>
      <dia:object type="Standard - Box" version="0" id="O6">
        <dia:attribute name="obj_pos">
          <dia:point val="2,4"/>
        </dia:attribute>
        <dia:attribute name="obj_bb">
          <dia:rectangle val="1.95,3.95;6.75,6.05"/>
        </dia:attribute>
        <dia:attribute name="elem_corner">
          <dia:point val="2,4"/>
        </dia:attribute>
        <dia:attribute name="elem_width">
          <dia:real val="4.6999999999999993"/>
        </dia:attribute>
        <dia:attribute name="elem_height">
          <dia:real val="2.0000000000000009"/>
        </dia:attribute>
        <dia:attribute name="show_background">
          <dia:boolean val="true"/>
        </dia:attribute>
      </dia:object>
      <dia:object type="Standard - Text" version="1" id="O7">
        <dia:attribute name="obj_pos">
          <dia:point val="2.65,5.25"/>
        </dia:attribute>
        <dia:attribute name="obj_bb">
          <dia:rectangle val="2.65,4.7;6.1,5.65"/>
        </dia:attribute>
        <dia:attribute name="text">
          <dia:composite type="text">
            <dia:attribute name="string">
              <dia:string>#application#</dia:string>
            </dia:attribute>
            <dia:attribute name="font">
              <dia:font family="sans" style="0" name="Helvetica"/>
            </dia:attribute>
            <dia:attribute name="height">
              <dia:real val="0.80000000000000004"/>
            </dia:attribute>
            <dia:attribute name="pos">
              <dia:point val="2.65,5.25"/>
            </dia:attribute>
            <dia:attribute name="color">
              <dia:color val="#000000"/>
            </dia:attribute>
            <dia:attribute name="alignment">
              <dia:enum val="0"/>
            </dia:attribute>
          </dia:composite>
        </dia:attribute>
        <dia:attribute name="valign">
          <dia:enum val="3"/>
        </dia:attribute>
      </dia:object>
    </dia:group>
    <dia:object type="Standard - Line" version="0" id="O8">
      <dia:attribute name="obj_pos">
        <dia:point val="4.35,6"/>
      </dia:attribute>
      <dia:attribute name="obj_bb">
        <dia:rectangle val="4.29979,5.94979;4.45021,17.8502"/>
      </dia:attribute>
      <dia:attribute name="conn_endpoints">
        <dia:point val="4.35,6"/>
        <dia:point val="4.4,17.8"/>
      </dia:attribute>
      <dia:attribute name="numcp">
        <dia:int val="1"/>
      </dia:attribute>
      <dia:attribute name="line_style">
        <dia:enum val="1"/>
      </dia:attribute>
      <dia:attribute name="dashlength">
        <dia:real val="0.40000000000000002"/>
      </dia:attribute>
      <dia:connections>
        <dia:connection handle="0" to="O6" connection="6"/>
      </dia:connections>
    </dia:object>
    <dia:object type="Standard - Box" version="0" id="O9">
      <dia:attribute name="obj_pos">
        <dia:point val="3.84,6.18"/>
      </dia:attribute>
      <dia:attribute name="obj_bb">
        <dia:rectangle val="3.79,6.13;4.89,9.05"/>
      </dia:attribute>
      <dia:attribute name="elem_corner">
        <dia:point val="3.84,6.18"/>
      </dia:attribute>
      <dia:attribute name="elem_width">
        <dia:real val="1"/>
      </dia:attribute>
      <dia:attribute name="elem_height">
        <dia:real val="2.8200000000000003"/>
      </dia:attribute>
      <dia:attribute name="show_background">
        <dia:boolean val="true"/>
      </dia:attribute>
      <dia:attribute name="corner_radius">
        <dia:real val="1.1754946310819804e-39"/>
      </dia:attribute>
    </dia:object>
    <dia:object type="Standard - Line" version="0" id="O10">
      <dia:attribute name="obj_pos">
        <dia:point val="12.4,6.38"/>
      </dia:attribute>
      <dia:attribute name="obj_bb">
        <dia:rectangle val="12.35,6.33;12.45,21.05"/>
      </dia:attribute>
      <dia:attribute name="conn_endpoints">
        <dia:point val="12.4,6.38"/>
        <dia:point val="12.4,21"/>
      </dia:attribute>
      <dia:attribute name="numcp">
        <dia:int val="1"/>
      </dia:attribute>
      <dia:attribute name="line_style">
        <dia:enum val="1"/>
      </dia:attribute>
      <dia:attribute name="dashlength">
        <dia:real val="0.40000000000000002"/>
      </dia:attribute>
      <dia:connections>
        <dia:connection handle="0" to="O2" connection="6"/>
      </dia:connections>
    </dia:object>
    <dia:object type="Standard - Line" version="0" id="O11">
      <dia:attribute name="obj_pos">
        <dia:point val="21.025,6.18"/>
      </dia:attribute>
      <dia:attribute name="obj_bb">
        <dia:rectangle val="20.9499,6.12992;21.0751,21.0501"/>
      </dia:attribute>
      <dia:attribute name="conn_endpoints">
        <dia:point val="21.025,6.18"/>
        <dia:point val="21,21"/>
      </dia:attribute>
      <dia:attribute name="numcp">
        <dia:int val="1"/>
      </dia:attribute>
      <dia:attribute name="line_style">
        <dia:enum val="1"/>
      </dia:attribute>
      <dia:attribute name="dashlength">
        <dia:real val="0.40000000000000002"/>
      </dia:attribute>
      <dia:connections>
        <dia:connection handle="0" to="O4" connection="6"/>
      </dia:connections>
    </dia:object>
    <dia:object type="Standard - Box" version="0" id="O12">
      <dia:attribute name="obj_pos">
        <dia:point val="11.9,9"/>
      </dia:attribute>
      <dia:attribute name="obj_bb">
        <dia:rectangle val="11.85,8.95;12.95,10.05"/>
      </dia:attribute>
      <dia:attribute name="elem_corner">
        <dia:point val="11.9,9"/>
      </dia:attribute>
      <dia:attribute name="elem_width">
        <dia:real val="1"/>
      </dia:attribute>
      <dia:attribute name="elem_height">
        <dia:real val="1"/>
      </dia:attribute>
      <dia:attribute name="show_background">
        <dia:boolean val="true"/>
      </dia:attribute>
    </dia:object>
    <dia:object type="Standard - Box" version="0" id="O13">
      <dia:attribute name="obj_pos">
        <dia:point val="11.9,17"/>
      </dia:attribute>
      <dia:attribute name="obj_bb">
        <dia:rectangle val="11.85,16.95;12.95,18.05"/>
      </dia:attribute>
      <dia:attribute name="elem_corner">
        <dia:point val="11.9,17"/>
      </dia:attribute>
      <dia:attribute name="elem_width">
        <dia:real val="1"/>
      </dia:attribute>
      <dia:attribute name="elem_height">
        <dia:real val="1"/>
      </dia:attribute>
      <dia:attribute name="show_background">
        <dia:boolean val="true"/>
      </dia:attribute>
    </dia:object>
    <dia:group>
      <dia:object type="Standard - Box" version="0" id="O14">
        <dia:attribute name="obj_pos">
          <dia:point val="20.52,10"/>
        </dia:attribute>
        <dia:attribute name="obj_bb">
          <dia:rectangle val="20.52,10;21.52,17"/>
        </dia:attribute>
        <dia:attribute name="elem_corner">
          <dia:point val="20.52,10"/>
        </dia:attribute>
        <dia:attribute name="elem_width">
          <dia:real val="1"/>
        </dia:attribute>
        <dia:attribute name="elem_height">
          <dia:real val="7"/>
        </dia:attribute>
        <dia:attribute name="border_width">
          <dia:real val="0"/>
        </dia:attribute>
        <dia:attribute name="border_color">
          <dia:color val="#ffffff"/>
        </dia:attribute>
        <dia:attribute name="show_background">
          <dia:boolean val="true"/>
        </dia:attribute>
        <dia:attribute name="corner_radius">
          <dia:real val="1.1754946310819804e-39"/>
        </dia:attribute>
      </dia:object>
      <dia:object type="Standard - Line" version="0" id="O15">
        <dia:attribute name="obj_pos">
          <dia:point val="20.52,10"/>
        </dia:attribute>
        <dia:attribute name="obj_bb">
          <dia:rectangle val="20.47,9.95;21.57,10.05"/>
        </dia:attribute>
        <dia:attribute name="conn_endpoints">
          <dia:point val="20.52,10"/>
          <dia:point val="21.52,10"/>
        </dia:attribute>
        <dia:attribute name="numcp">
          <dia:int val="1"/>
        </dia:attribute>
      </dia:object>
      <dia:object type="Standard - Line" version="0" id="O16">
        <dia:attribute name="obj_pos">
          <dia:point val="21.52,10"/>
        </dia:attribute>
        <dia:attribute name="obj_bb">
          <dia:rectangle val="21.47,9.95;21.57,13.05"/>
        </dia:attribute>
        <dia:attribute name="conn_endpoints">
          <dia:point val="21.52,10"/>
          <dia:point val="21.52,13"/>
        </dia:attribute>
        <dia:attribute name="numcp">
          <dia:int val="1"/>
        </dia:attribute>
      </dia:object>
      <dia:object type="Standard - Line" version="0" id="O17">
        <dia:attribute name="obj_pos">
          <dia:point val="20.52,10"/>
        </dia:attribute>
        <dia:attribute name="obj_bb">
          <dia:rectangle val="20.47,9.95;20.57,13.05"/>
        </dia:attribute>
        <dia:attribute name="conn_endpoints">
          <dia:point val="20.52,10"/>
          <dia:point val="20.52,13"/>
        </dia:attribute>
        <dia:attribute name="numcp">
          <dia:int val="1"/>
        </dia:attribute>
      </dia:object>
      <dia:object type="Standard - Line" version="0" id="O18">
        <dia:attribute name="obj_pos">
          <dia:point val="20.52,13.3"/>
        </dia:attribute>
        <dia:attribute name="obj_bb">
          <dia:rectangle val="20.47,13.25;20.57,17.05"/>
        </dia:attribute>
        <dia:attribute name="conn_endpoints">
          <dia:point val="20.52,13.3"/>
          <dia:point val="20.52,17"/>
        </dia:attribute>
        <dia:attribute name="numcp">
          <dia:int val="1"/>
        </dia:attribute>
        <dia:connections>
          <dia:connection handle="0" to="O22" connection="0"/>
        </dia:connections>
      </dia:object>
      <dia:object type="Standard - Line" version="0" id="O19">
        <dia:attribute name="obj_pos">
          <dia:point val="20.52,17"/>
        </dia:attribute>
        <dia:attribute name="obj_bb">
          <dia:rectangle val="20.47,16.95;21.57,17.05"/>
        </dia:attribute>
        <dia:attribute name="conn_endpoints">
          <dia:point val="20.52,17"/>
          <dia:point val="21.52,17"/>
        </dia:attribute>
        <dia:attribute name="numcp">
          <dia:int val="1"/>
        </dia:attribute>
      </dia:object>
      <dia:object type="Standard - Line" version="0" id="O20">
        <dia:attribute name="obj_pos">
          <dia:point val="21.52,17"/>
        </dia:attribute>
        <dia:attribute name="obj_bb">
          <dia:rectangle val="21.47,13.25;21.57,17.05"/>
        </dia:attribute>
        <dia:attribute name="conn_endpoints">
          <dia:point val="21.52,17"/>
          <dia:point val="21.52,13.3"/>
        </dia:attribute>
        <dia:attribute name="numcp">
          <dia:int val="1"/>
        </dia:attribute>
        <dia:connections>
          <dia:connection handle="1" to="O24" connection="0"/>
        </dia:connections>
      </dia:object>
      <dia:object type="Standard - Line" version="0" id="O21">
        <dia:attribute name="obj_pos">
          <dia:point val="20.32,13.2"/>
        </dia:attribute>
        <dia:attribute name="obj_bb">
          <dia:rectangle val="20.2493,12.7293;20.7907,13.2707"/>
        </dia:attribute>
        <dia:attribute name="conn_endpoints">
          <dia:point val="20.32,13.2"/>
          <dia:point val="20.72,12.8"/>
        </dia:attribute>
        <dia:attribute name="numcp">
          <dia:int val="1"/>
        </dia:attribute>
      </dia:object>
      <dia:object type="Standard - Line" version="0" id="O22">
        <dia:attribute name="obj_pos">
          <dia:point val="20.32,13.5"/>
        </dia:attribute>
        <dia:attribute name="obj_bb">
          <dia:rectangle val="20.2493,13.0293;20.7907,13.5707"/>
        </dia:attribute>
        <dia:attribute name="conn_endpoints">
          <dia:point val="20.32,13.5"/>
          <dia:point val="20.72,13.1"/>
        </dia:attribute>
        <dia:attribute name="numcp">
          <dia:int val="1"/>
        </dia:attribute>
      </dia:object>
      <dia:object type="Standard - Line" version="0" id="O23">
        <dia:attribute name="obj_pos">
          <dia:point val="21.32,13.2"/>
        </dia:attribute>
        <dia:attribute name="obj_bb">
          <dia:rectangle val="21.2493,12.7293;21.7907,13.2707"/>
        </dia:attribute>
        <dia:attribute name="conn_endpoints">
          <dia:point val="21.32,13.2"/>
          <dia:point val="21.72,12.8"/>
        </dia:attribute>
        <dia:attribute name="numcp">
          <dia:int val="1"/>
        </dia:attribute>
      </dia:object>
      <dia:object type="Standard - Line" version="0" id="O24">
        <dia:attribute name="obj_pos">
          <dia:point val="21.32,13.5"/>
        </dia:attribute>
        <dia:attribute name="obj_bb">
          <dia:rectangle val="21.2493,13.0293;21.7907,13.5707"/>
        </dia:attribute>
        <dia:attribute name="conn_endpoints">
          <dia:point val="21.32,13.5"/>
          <dia:point val="21.72,13.1"/>
        </dia:attribute>
        <dia:attribute name="numcp">
          <dia:int val="1"/>
        </dia:attribute>
      </dia:object>
    </dia:group>
    <dia:group>
      <dia:object type="Standard - Box" version="0" id="O25">
        <dia:attribute name="obj_pos">
          <dia:point val="3.9,18"/>
        </dia:attribute>
        <dia:attribute name="obj_bb">
          <dia:rectangle val="3.9,18;4.9,21"/>
        </dia:attribute>
        <dia:attribute name="elem_corner">
          <dia:point val="3.9,18"/>
        </dia:attribute>
        <dia:attribute name="elem_width">
          <dia:real val="1"/>
        </dia:attribute>
        <dia:attribute name="elem_height">
          <dia:real val="3"/>
        </dia:attribute>
        <dia:attribute name="border_width">
          <dia:real val="0"/>
        </dia:attribute>
        <dia:attribute name="border_color">
          <dia:color val="#ffffff"/>
        </dia:attribute>
        <dia:attribute name="show_background">
          <dia:boolean val="true"/>
        </dia:attribute>
        <dia:attribute name="corner_radius">
          <dia:real val="1.1754946310819804e-39"/>
        </dia:attribute>
      </dia:object>
      <dia:object type="Standard - Line" version="0" id="O26">
        <dia:attribute name="obj_pos">
          <dia:point val="3.9,18"/>
        </dia:attribute>
        <dia:attribute name="obj_bb">
          <dia:rectangle val="3.85,17.95;3.95,21.05"/>
        </dia:attribute>
        <dia:attribute name="conn_endpoints">
          <dia:point val="3.9,18"/>
          <dia:point val="3.9,21"/>
        </dia:attribute>
        <dia:attribute name="numcp">
          <dia:int val="1"/>
        </dia:attribute>
      </dia:object>
      <dia:object type="Standard - Line" version="0" id="O27">
        <dia:attribute name="obj_pos">
          <dia:point val="3.9,18"/>
        </dia:attribute>
        <dia:attribute name="obj_bb">
          <dia:rectangle val="3.85,17.95;4.95,18.05"/>
        </dia:attribute>
        <dia:attribute name="conn_endpoints">
          <dia:point val="3.9,18"/>
          <dia:point val="4.9,18"/>
        </dia:attribute>
        <dia:attribute name="numcp">
          <dia:int val="1"/>
        </dia:attribute>
      </dia:object>
      <dia:object type="Standard - Line" version="0" id="O28">
        <dia:attribute name="obj_pos">
          <dia:point val="4.9,18"/>
        </dia:attribute>
        <dia:attribute name="obj_bb">
          <dia:rectangle val="4.85,17.95;4.95,21.05"/>
        </dia:attribute>
        <dia:attribute name="conn_endpoints">
          <dia:point val="4.9,18"/>
          <dia:point val="4.9,21"/>
        </dia:attribute>
        <dia:attribute name="numcp">
          <dia:int val="1"/>
        </dia:attribute>
      </dia:object>
      <dia:object type="Standard - Line" version="0" id="O29">
        <dia:attribute name="obj_pos">
          <dia:point val="3.7,21.2"/>
        </dia:attribute>
        <dia:attribute name="obj_bb">
          <dia:rectangle val="3.62929,20.7293;4.17071,21.2707"/>
        </dia:attribute>
        <dia:attribute name="conn_endpoints">
          <dia:point val="3.7,21.2"/>
          <dia:point val="4.1,20.8"/>
        </dia:attribute>
        <dia:attribute name="numcp">
          <dia:int val="1"/>
        </dia:attribute>
      </dia:object>
      <dia:object type="Standard - Line" version="0" id="O30">
        <dia:attribute name="obj_pos">
          <dia:point val="4.7,21.2"/>
        </dia:attribute>
        <dia:attribute name="obj_bb">
          <dia:rectangle val="4.62929,20.7293;5.17071,21.2707"/>
        </dia:attribute>
        <dia:attribute name="conn_endpoints">
          <dia:point val="4.7,21.2"/>
          <dia:point val="5.1,20.8"/>
        </dia:attribute>
        <dia:attribute name="numcp">
          <dia:int val="1"/>
        </dia:attribute>
      </dia:object>
    </dia:group>
    <dia:object type="Standard - Line" version="0" id="O31">
      <dia:attribute name="obj_pos">
        <dia:point val="4.84,9"/>
      </dia:attribute>
      <dia:attribute name="obj_bb">
        <dia:rectangle val="4.79,8.5;11.95,9.5"/>
      </dia:attribute>
      <dia:attribute name="conn_endpoints">
        <dia:point val="4.84,9"/>
        <dia:point val="11.9,9"/>
      </dia:attribute>
      <dia:attribute name="numcp">
        <dia:int val="1"/>
      </dia:attribute>
      <dia:attribute name="end_arrow">
        <dia:enum val="1"/>
      </dia:attribute>
      <dia:attribute name="end_arrow_length">
        <dia:real val="0.5"/>
      </dia:attribute>
      <dia:attribute name="end_arrow_width">
        <dia:real val="0.5"/>
      </dia:attribute>
      <dia:connections>
        <dia:connection handle="0" to="O9" connection="7"/>
        <dia:connection handle="1" to="O12" connection="0"/>
      </dia:connections>
    </dia:object>
    <dia:object type="Standard - Line" version="0" id="O32">
      <dia:attribute name="obj_pos">
        <dia:point val="12.9,10"/>
      </dia:attribute>
      <dia:attribute name="obj_bb">
        <dia:rectangle val="12.85,9.5;20.57,10.5"/>
      </dia:attribute>
      <dia:attribute name="conn_endpoints">
        <dia:point val="12.9,10"/>
        <dia:point val="20.52,10"/>
      </dia:attribute>
      <dia:attribute name="numcp">
        <dia:int val="1"/>
      </dia:attribute>
      <dia:attribute name="end_arrow">
        <dia:enum val="1"/>
      </dia:attribute>
      <dia:attribute name="end_arrow_length">
        <dia:real val="0.5"/>
      </dia:attribute>
      <dia:attribute name="end_arrow_width">
        <dia:real val="0.5"/>
      </dia:attribute>
      <dia:connections>
        <dia:connection handle="0" to="O12" connection="7"/>
        <dia:connection handle="1" to="O14" connection="0"/>
      </dia:connections>
    </dia:object>
    <dia:object type="Standard - Line" version="0" id="O33">
      <dia:attribute name="obj_pos">
        <dia:point val="20.52,17"/>
      </dia:attribute>
      <dia:attribute name="obj_bb">
        <dia:rectangle val="12.85,16.5;20.57,17.5"/>
      </dia:attribute>
      <dia:attribute name="conn_endpoints">
        <dia:point val="20.52,17"/>
        <dia:point val="12.9,17"/>
      </dia:attribute>
      <dia:attribute name="numcp">
        <dia:int val="1"/>
      </dia:attribute>
      <dia:attribute name="end_arrow">
        <dia:enum val="1"/>
      </dia:attribute>
      <dia:attribute name="end_arrow_length">
        <dia:real val="0.5"/>
      </dia:attribute>
      <dia:attribute name="end_arrow_width">
        <dia:real val="0.5"/>
      </dia:attribute>
      <dia:connections>
        <dia:connection handle="0" to="O14" connection="5"/>
        <dia:connection handle="1" to="O13" connection="2"/>
      </dia:connections>
    </dia:object>
    <dia:object type="Standard - Line" version="0" id="O34">
      <dia:attribute name="obj_pos">
        <dia:point val="11.9,18"/>
      </dia:attribute>
      <dia:attribute name="obj_bb">
        <dia:rectangle val="4.85,17.5;11.95,18.5"/>
      </dia:attribute>
      <dia:attribute name="conn_endpoints">
        <dia:point val="11.9,18"/>
        <dia:point val="4.9,18"/>
      </dia:attribute>
      <dia:attribute name="numcp">
        <dia:int val="1"/>
      </dia:attribute>
      <dia:attribute name="end_arrow">
        <dia:enum val="1"/>
      </dia:attribute>
      <dia:attribute name="end_arrow_length">
        <dia:real val="0.5"/>
      </dia:attribute>
      <dia:attribute name="end_arrow_width">
        <dia:real val="0.5"/>
      </dia:attribute>
      <dia:connections>
        <dia:connection handle="0" to="O13" connection="5"/>
        <dia:connection handle="1" to="O25" connection="2"/>
      </dia:connections>
    </dia:object>
    <dia:object type="Standard - Text" version="1" id="O35">
      <dia:attribute name="obj_pos">
        <dia:point val="7.65,8.65"/>
      </dia:attribute>
      <dia:attribute name="obj_bb">
        <dia:rectangle val="7.65,8.1;9,9.05"/>
      </dia:attribute>
      <dia:attribute name="text">
        <dia:composite type="text">
          <dia:attribute name="string">
            <dia:string>#task#</dia:string>
          </dia:attribute>
          <dia:attribute name="font">
            <dia:font family="sans" style="0" name="Helvetica"/>
          </dia:attribute>
          <dia:attribute name="height">
            <dia:real val="0.80000000000000004"/>
          </dia:attribute>
          <dia:attribute name="pos">
            <dia:point val="7.65,8.65"/>
          </dia:attribute>
          <dia:attribute name="color">
            <dia:color val="#000000"/>
          </dia:attribute>
          <dia:attribute name="alignment">
            <dia:enum val="0"/>
          </dia:attribute>
        </dia:composite>
      </dia:attribute>
      <dia:attribute name="valign">
        <dia:enum val="3"/>
      </dia:attribute>
    </dia:object>
    <dia:object type="Standard - Text" version="1" id="O36">
      <dia:attribute name="obj_pos">
        <dia:point val="16.05,9.6"/>
      </dia:attribute>
      <dia:attribute name="obj_bb">
        <dia:rectangle val="16.05,9.05;17.4,10"/>
      </dia:attribute>
      <dia:attribute name="text">
        <dia:composite type="text">
          <dia:attribute name="string">
            <dia:string>#task#</dia:string>
          </dia:attribute>
          <dia:attribute name="font">
            <dia:font family="sans" style="0" name="Helvetica"/>
          </dia:attribute>
          <dia:attribute name="height">
            <dia:real val="0.80000000000000004"/>
          </dia:attribute>
          <dia:attribute name="pos">
            <dia:point val="16.05,9.6"/>
          </dia:attribute>
          <dia:attribute name="color">
            <dia:color val="#000000"/>
          </dia:attribute>
          <dia:attribute name="alignment">
            <dia:enum val="0"/>
          </dia:attribute>
        </dia:composite>
      </dia:attribute>
      <dia:attribute name="valign">
        <dia:enum val="3"/>
      </dia:attribute>
    </dia:object>
    <dia:object type="Standard - Text" version="1" id="O37">
      <dia:attribute name="obj_pos">
        <dia:point val="15.882,17.812"/>
      </dia:attribute>
      <dia:attribute name="obj_bb">
        <dia:rectangle val="15.882,17.262;17.682,18.212"/>
      </dia:attribute>
      <dia:attribute name="text">
        <dia:composite type="text">
          <dia:attribute name="string">
            <dia:string>#result#</dia:string>
          </dia:attribute>
          <dia:attribute name="font">
            <dia:font family="sans" style="0" name="Helvetica"/>
          </dia:attribute>
          <dia:attribute name="height">
            <dia:real val="0.80000000000000004"/>
          </dia:attribute>
          <dia:attribute name="pos">
            <dia:point val="15.882,17.812"/>
          </dia:attribute>
          <dia:attribute name="color">
            <dia:color val="#000000"/>
          </dia:attribute>
          <dia:attribute name="alignment">
            <dia:enum val="0"/>
          </dia:attribute>
        </dia:composite>
      </dia:attribute>
      <dia:attribute name="valign">
        <dia:enum val="3"/>
      </dia:attribute>
    </dia:object>
    <dia:object type="Standard - Text" version="1" id="O38">
      <dia:attribute name="obj_pos">
        <dia:point val="7.572,18.834"/>
      </dia:attribute>
      <dia:attribute name="obj_bb">
        <dia:rectangle val="7.572,18.284;9.372,19.234"/>
      </dia:attribute>
      <dia:attribute name="text">
        <dia:composite type="text">
          <dia:attribute name="string">
            <dia:string>#result#</dia:string>
          </dia:attribute>
          <dia:attribute name="font">
            <dia:font family="sans" style="0" name="Helvetica"/>
          </dia:attribute>
          <dia:attribute name="height">
            <dia:real val="0.80000000000000004"/>
          </dia:attribute>
          <dia:attribute name="pos">
            <dia:point val="7.572,18.834"/>
          </dia:attribute>
          <dia:attribute name="color">
            <dia:color val="#000000"/>
          </dia:attribute>
          <dia:attribute name="alignment">
            <dia:enum val="0"/>
          </dia:attribute>
        </dia:composite>
      </dia:attribute>
      <dia:attribute name="valign">
        <dia:enum val="3"/>
      </dia:attribute>
    </dia:object>
    <dia:object type="Standard - Line" version="0" id="O39">
      <dia:attribute name="obj_pos">
        <dia:point val="1.29289,3.29289"/>
      </dia:attribute>
      <dia:attribute name="obj_bb">
        <dia:rectangle val="1.22503,1.93214;2.06786,3.36075"/>
      </dia:attribute>
      <dia:attribute name="conn_endpoints">
        <dia:point val="1.29289,3.29289"/>
        <dia:point val="2,2"/>
      </dia:attribute>
      <dia:attribute name="numcp">
        <dia:int val="1"/>
      </dia:attribute>
      <dia:attribute name="line_color">
        <dia:color val="#525252"/>
      </dia:attribute>
      <dia:attribute name="line_style">
        <dia:enum val="4"/>
      </dia:attribute>
      <dia:connections>
        <dia:connection handle="0" to="O0" connection="0"/>
      </dia:connections>
    </dia:object>
    <dia:object type="Standard - Box" version="0" id="O40">
      <dia:attribute name="obj_pos">
        <dia:point val="26,3"/>
      </dia:attribute>
      <dia:attribute name="obj_bb">
        <dia:rectangle val="25.95,2.95;50.05,22.05"/>
      </dia:attribute>
      <dia:attribute name="elem_corner">
        <dia:point val="26,3"/>
      </dia:attribute>
      <dia:attribute name="elem_width">
        <dia:real val="24"/>
      </dia:attribute>
      <dia:attribute name="elem_height">
        <dia:real val="19"/>
      </dia:attribute>
      <dia:attribute name="border_color">
        <dia:color val="#525252"/>
      </dia:attribute>
      <dia:attribute name="show_background">
        <dia:boolean val="false"/>
      </dia:attribute>
      <dia:attribute name="line_style">
        <dia:enum val="4"/>
      </dia:attribute>
      <dia:attribute name="corner_radius">
        <dia:real val="1"/>
      </dia:attribute>
    </dia:object>
    <dia:object type="Standard - Text" version="1" id="O41">
      <dia:attribute name="obj_pos">
        <dia:point val="27,2"/>
      </dia:attribute>
      <dia:attribute name="obj_bb">
        <dia:rectangle val="27,1.4325;31.0175,2.435"/>
      </dia:attribute>
      <dia:attribute name="text">
        <dia:composite type="text">
          <dia:attribute name="string">
            <dia:string>#non-blocking#</dia:string>
          </dia:attribute>
          <dia:attribute name="font">
            <dia:font family="sans" style="0" name="Helvetica"/>
          </dia:attribute>
          <dia:attribute name="height">
            <dia:real val="0.80000000000000004"/>
          </dia:attribute>
          <dia:attribute name="pos">
            <dia:point val="27,2"/>
          </dia:attribute>
          <dia:attribute name="color">
            <dia:color val="#525252"/>
          </dia:attribute>
          <dia:attribute name="alignment">
            <dia:enum val="0"/>
          </dia:attribute>
        </dia:composite>
      </dia:attribute>
      <dia:attribute name="valign">
        <dia:enum val="3"/>
      </dia:attribute>
    </dia:object>
    <dia:group>
      <dia:object type="Standard - Box" version="0" id="O42">
        <dia:attribute name="obj_pos">
          <dia:point val="35,4"/>
        </dia:attribute>
        <dia:attribute name="obj_bb">
          <dia:rectangle val="34.95,3.95;39.85,6.43"/>
        </dia:attribute>
        <dia:attribute name="elem_corner">
          <dia:point val="35,4"/>
        </dia:attribute>
        <dia:attribute name="elem_width">
          <dia:real val="4.8000000000000025"/>
        </dia:attribute>
        <dia:attribute name="elem_height">
          <dia:real val="2.3799999999999999"/>
        </dia:attribute>
        <dia:attribute name="show_background">
          <dia:boolean val="true"/>
        </dia:attribute>
      </dia:object>
      <dia:object type="Standard - Text" version="1" id="O43">
        <dia:attribute name="obj_pos">
          <dia:point val="35.325,4.95"/>
        </dia:attribute>
        <dia:attribute name="obj_bb">
          <dia:rectangle val="35.325,4.4;39.325,6.15"/>
        </dia:attribute>
        <dia:attribute name="text">
          <dia:composite type="text">
            <dia:attribute name="string">
              <dia:string>#   libexcom
main module#</dia:string>
            </dia:attribute>
            <dia:attribute name="font">
              <dia:font family="sans" style="0" name="Helvetica"/>
            </dia:attribute>
            <dia:attribute name="height">
              <dia:real val="0.80000000000000004"/>
            </dia:attribute>
            <dia:attribute name="pos">
              <dia:point val="35.325,4.95"/>
            </dia:attribute>
            <dia:attribute name="color">
              <dia:color val="#000000"/>
            </dia:attribute>
            <dia:attribute name="alignment">
              <dia:enum val="0"/>
            </dia:attribute>
          </dia:composite>
        </dia:attribute>
        <dia:attribute name="valign">
          <dia:enum val="3"/>
        </dia:attribute>
      </dia:object>
    </dia:group>
    <dia:group>
      <dia:object type="Standard - Box" version="0" id="O44">
        <dia:attribute name="obj_pos">
          <dia:point val="43,4"/>
        </dia:attribute>
        <dia:attribute name="obj_bb">
          <dia:rectangle val="42.95,3.95;49.1,6.23"/>
        </dia:attribute>
        <dia:attribute name="elem_corner">
          <dia:point val="43,4"/>
        </dia:attribute>
        <dia:attribute name="elem_width">
          <dia:real val="6.0500000000000007"/>
        </dia:attribute>
        <dia:attribute name="elem_height">
          <dia:real val="2.1799999999999997"/>
        </dia:attribute>
        <dia:attribute name="show_background">
          <dia:boolean val="true"/>
        </dia:attribute>
      </dia:object>
      <dia:object type="Standard - Text" version="1" id="O45">
        <dia:attribute name="obj_pos">
          <dia:point val="43.35,4.925"/>
        </dia:attribute>
        <dia:attribute name="obj_bb">
          <dia:rectangle val="43.35,4.375;48.65,6.125"/>
        </dia:attribute>
        <dia:attribute name="text">
          <dia:composite type="text">
            <dia:attribute name="string">
              <dia:string>#(de)compression
         unit#</dia:string>
            </dia:attribute>
            <dia:attribute name="font">
              <dia:font family="sans" style="0" name="Helvetica"/>
            </dia:attribute>
            <dia:attribute name="height">
              <dia:real val="0.80000000000000004"/>
            </dia:attribute>
            <dia:attribute name="pos">
              <dia:point val="43.35,4.925"/>
            </dia:attribute>
            <dia:attribute name="color">
              <dia:color val="#000000"/>
            </dia:attribute>
            <dia:attribute name="alignment">
              <dia:enum val="0"/>
            </dia:attribute>
          </dia:composite>
        </dia:attribute>
        <dia:attribute name="valign">
          <dia:enum val="3"/>
        </dia:attribute>
      </dia:object>
    </dia:group>
    <dia:group>
      <dia:object type="Standard - Box" version="0" id="O46">
        <dia:attribute name="obj_pos">
          <dia:point val="27,4"/>
        </dia:attribute>
        <dia:attribute name="obj_bb">
          <dia:rectangle val="26.95,3.95;31.75,6.05"/>
        </dia:attribute>
        <dia:attribute name="elem_corner">
          <dia:point val="27,4"/>
        </dia:attribute>
        <dia:attribute name="elem_width">
          <dia:real val="4.6999999999999993"/>
        </dia:attribute>
        <dia:attribute name="elem_height">
          <dia:real val="2.0000000000000009"/>
        </dia:attribute>
        <dia:attribute name="show_background">
          <dia:boolean val="true"/>
        </dia:attribute>
      </dia:object>
      <dia:object type="Standard - Text" version="1" id="O47">
        <dia:attribute name="obj_pos">
          <dia:point val="27.65,5.25"/>
        </dia:attribute>
        <dia:attribute name="obj_bb">
          <dia:rectangle val="27.65,4.7;31.1,5.65"/>
        </dia:attribute>
        <dia:attribute name="text">
          <dia:composite type="text">
            <dia:attribute name="string">
              <dia:string>#application#</dia:string>
            </dia:attribute>
            <dia:attribute name="font">
              <dia:font family="sans" style="0" name="Helvetica"/>
            </dia:attribute>
            <dia:attribute name="height">
              <dia:real val="0.80000000000000004"/>
            </dia:attribute>
            <dia:attribute name="pos">
              <dia:point val="27.65,5.25"/>
            </dia:attribute>
            <dia:attribute name="color">
              <dia:color val="#000000"/>
            </dia:attribute>
            <dia:attribute name="alignment">
              <dia:enum val="0"/>
            </dia:attribute>
          </dia:composite>
        </dia:attribute>
        <dia:attribute name="valign">
          <dia:enum val="3"/>
        </dia:attribute>
      </dia:object>
    </dia:group>
    <dia:object type="Standard - Line" version="0" id="O48">
      <dia:attribute name="obj_pos">
        <dia:point val="29.35,6"/>
      </dia:attribute>
      <dia:attribute name="obj_bb">
        <dia:rectangle val="29.3,5.94996;29.41,18.05"/>
      </dia:attribute>
      <dia:attribute name="conn_endpoints">
        <dia:point val="29.35,6"/>
        <dia:point val="29.36,18"/>
      </dia:attribute>
      <dia:attribute name="numcp">
        <dia:int val="1"/>
      </dia:attribute>
      <dia:attribute name="line_style">
        <dia:enum val="1"/>
      </dia:attribute>
      <dia:attribute name="dashlength">
        <dia:real val="0.40000000000000002"/>
      </dia:attribute>
      <dia:connections>
        <dia:connection handle="0" to="O46" connection="6"/>
      </dia:connections>
    </dia:object>
    <dia:object type="Standard - Box" version="0" id="O49">
      <dia:attribute name="obj_pos">
        <dia:point val="28.84,6.18"/>
      </dia:attribute>
      <dia:attribute name="obj_bb">
        <dia:rectangle val="28.79,6.13;29.89,9.05"/>
      </dia:attribute>
      <dia:attribute name="elem_corner">
        <dia:point val="28.84,6.18"/>
      </dia:attribute>
      <dia:attribute name="elem_width">
        <dia:real val="1"/>
      </dia:attribute>
      <dia:attribute name="elem_height">
        <dia:real val="2.8200000000000003"/>
      </dia:attribute>
      <dia:attribute name="show_background">
        <dia:boolean val="true"/>
      </dia:attribute>
      <dia:attribute name="corner_radius">
        <dia:real val="1.1754946310819804e-39"/>
      </dia:attribute>
    </dia:object>
    <dia:object type="Standard - Line" version="0" id="O50">
      <dia:attribute name="obj_pos">
        <dia:point val="37.4,6.38"/>
      </dia:attribute>
      <dia:attribute name="obj_bb">
        <dia:rectangle val="37.35,6.33;37.45,21.05"/>
      </dia:attribute>
      <dia:attribute name="conn_endpoints">
        <dia:point val="37.4,6.38"/>
        <dia:point val="37.4,21"/>
      </dia:attribute>
      <dia:attribute name="numcp">
        <dia:int val="1"/>
      </dia:attribute>
      <dia:attribute name="line_style">
        <dia:enum val="1"/>
      </dia:attribute>
      <dia:attribute name="dashlength">
        <dia:real val="0.40000000000000002"/>
      </dia:attribute>
      <dia:connections>
        <dia:connection handle="0" to="O42" connection="6"/>
      </dia:connections>
    </dia:object>
    <dia:object type="Standard - Line" version="0" id="O51">
      <dia:attribute name="obj_pos">
        <dia:point val="46.025,6.18"/>
      </dia:attribute>
      <dia:attribute name="obj_bb">
        <dia:rectangle val="45.9499,6.12992;46.0751,21.0501"/>
      </dia:attribute>
      <dia:attribute name="conn_endpoints">
        <dia:point val="46.025,6.18"/>
        <dia:point val="46,21"/>
      </dia:attribute>
      <dia:attribute name="numcp">
        <dia:int val="1"/>
      </dia:attribute>
      <dia:attribute name="line_style">
        <dia:enum val="1"/>
      </dia:attribute>
      <dia:attribute name="dashlength">
        <dia:real val="0.40000000000000002"/>
      </dia:attribute>
      <dia:connections>
        <dia:connection handle="0" to="O44" connection="6"/>
      </dia:connections>
    </dia:object>
    <dia:object type="Standard - Box" version="0" id="O52">
      <dia:attribute name="obj_pos">
        <dia:point val="36.9,9"/>
      </dia:attribute>
      <dia:attribute name="obj_bb">
        <dia:rectangle val="36.85,8.95;37.95,10.05"/>
      </dia:attribute>
      <dia:attribute name="elem_corner">
        <dia:point val="36.9,9"/>
      </dia:attribute>
      <dia:attribute name="elem_width">
        <dia:real val="1"/>
      </dia:attribute>
      <dia:attribute name="elem_height">
        <dia:real val="1"/>
      </dia:attribute>
      <dia:attribute name="show_background">
        <dia:boolean val="true"/>
      </dia:attribute>
    </dia:object>
    <dia:object type="Standard - Box" version="0" id="O53">
      <dia:attribute name="obj_pos">
        <dia:point val="36.9,16.2"/>
      </dia:attribute>
      <dia:attribute name="obj_bb">
        <dia:rectangle val="36.85,16.15;37.95,18.07"/>
      </dia:attribute>
      <dia:attribute name="elem_corner">
        <dia:point val="36.9,16.2"/>
      </dia:attribute>
      <dia:attribute name="elem_width">
        <dia:real val="1"/>
      </dia:attribute>
      <dia:attribute name="elem_height">
        <dia:real val="1.8200000000000003"/>
      </dia:attribute>
      <dia:attribute name="show_background">
        <dia:boolean val="true"/>
      </dia:attribute>
    </dia:object>
    <dia:group>
      <dia:object type="Standard - Box" version="0" id="O54">
        <dia:attribute name="obj_pos">
          <dia:point val="45.52,10"/>
        </dia:attribute>
        <dia:attribute name="obj_bb">
          <dia:rectangle val="45.52,10;46.52,17"/>
        </dia:attribute>
        <dia:attribute name="elem_corner">
          <dia:point val="45.52,10"/>
        </dia:attribute>
        <dia:attribute name="elem_width">
          <dia:real val="1"/>
        </dia:attribute>
        <dia:attribute name="elem_height">
          <dia:real val="7"/>
        </dia:attribute>
        <dia:attribute name="border_width">
          <dia:real val="0"/>
        </dia:attribute>
        <dia:attribute name="border_color">
          <dia:color val="#ffffff"/>
        </dia:attribute>
        <dia:attribute name="show_background">
          <dia:boolean val="true"/>
        </dia:attribute>
        <dia:attribute name="corner_radius">
          <dia:real val="1.1754946310819804e-39"/>
        </dia:attribute>
      </dia:object>
      <dia:object type="Standard - Line" version="0" id="O55">
        <dia:attribute name="obj_pos">
          <dia:point val="45.52,10"/>
        </dia:attribute>
        <dia:attribute name="obj_bb">
          <dia:rectangle val="45.47,9.95;46.57,10.05"/>
        </dia:attribute>
        <dia:attribute name="conn_endpoints">
          <dia:point val="45.52,10"/>
          <dia:point val="46.52,10"/>
        </dia:attribute>
        <dia:attribute name="numcp">
          <dia:int val="1"/>
        </dia:attribute>
      </dia:object>
      <dia:object type="Standard - Line" version="0" id="O56">
        <dia:attribute name="obj_pos">
          <dia:point val="46.52,10"/>
        </dia:attribute>
        <dia:attribute name="obj_bb">
          <dia:rectangle val="46.47,9.95;46.57,13.05"/>
        </dia:attribute>
        <dia:attribute name="conn_endpoints">
          <dia:point val="46.52,10"/>
          <dia:point val="46.52,13"/>
        </dia:attribute>
        <dia:attribute name="numcp">
          <dia:int val="1"/>
        </dia:attribute>
      </dia:object>
      <dia:object type="Standard - Line" version="0" id="O57">
        <dia:attribute name="obj_pos">
          <dia:point val="45.52,10"/>
        </dia:attribute>
        <dia:attribute name="obj_bb">
          <dia:rectangle val="45.47,9.95;45.57,13.05"/>
        </dia:attribute>
        <dia:attribute name="conn_endpoints">
          <dia:point val="45.52,10"/>
          <dia:point val="45.52,13"/>
        </dia:attribute>
        <dia:attribute name="numcp">
          <dia:int val="1"/>
        </dia:attribute>
      </dia:object>
      <dia:object type="Standard - Line" version="0" id="O58">
        <dia:attribute name="obj_pos">
          <dia:point val="45.52,13.3"/>
        </dia:attribute>
        <dia:attribute name="obj_bb">
          <dia:rectangle val="45.47,13.25;45.57,17.05"/>
        </dia:attribute>
        <dia:attribute name="conn_endpoints">
          <dia:point val="45.52,13.3"/>
          <dia:point val="45.52,17"/>
        </dia:attribute>
        <dia:attribute name="numcp">
          <dia:int val="1"/>
        </dia:attribute>
        <dia:connections>
          <dia:connection handle="0" to="O62" connection="0"/>
        </dia:connections>
      </dia:object>
      <dia:object type="Standard - Line" version="0" id="O59">
        <dia:attribute name="obj_pos">
          <dia:point val="45.52,17"/>
        </dia:attribute>
        <dia:attribute name="obj_bb">
          <dia:rectangle val="45.47,16.95;46.57,17.05"/>
        </dia:attribute>
        <dia:attribute name="conn_endpoints">
          <dia:point val="45.52,17"/>
          <dia:point val="46.52,17"/>
        </dia:attribute>
        <dia:attribute name="numcp">
          <dia:int val="1"/>
        </dia:attribute>
      </dia:object>
      <dia:object type="Standard - Line" version="0" id="O60">
        <dia:attribute name="obj_pos">
          <dia:point val="46.52,17"/>
        </dia:attribute>
        <dia:attribute name="obj_bb">
          <dia:rectangle val="46.47,13.25;46.57,17.05"/>
        </dia:attribute>
        <dia:attribute name="conn_endpoints">
          <dia:point val="46.52,17"/>
          <dia:point val="46.52,13.3"/>
        </dia:attribute>
        <dia:attribute name="numcp">
          <dia:int val="1"/>
        </dia:attribute>
        <dia:connections>
          <dia:connection handle="1" to="O64" connection="0"/>
        </dia:connections>
      </dia:object>
      <dia:object type="Standard - Line" version="0" id="O61">
        <dia:attribute name="obj_pos">
          <dia:point val="45.32,13.2"/>
        </dia:attribute>
        <dia:attribute name="obj_bb">
          <dia:rectangle val="45.2493,12.7293;45.7907,13.2707"/>
        </dia:attribute>
        <dia:attribute name="conn_endpoints">
          <dia:point val="45.32,13.2"/>
          <dia:point val="45.72,12.8"/>
        </dia:attribute>
        <dia:attribute name="numcp">
          <dia:int val="1"/>
        </dia:attribute>
      </dia:object>
      <dia:object type="Standard - Line" version="0" id="O62">
        <dia:attribute name="obj_pos">
          <dia:point val="45.32,13.5"/>
        </dia:attribute>
        <dia:attribute name="obj_bb">
          <dia:rectangle val="45.2493,13.0293;45.7907,13.5707"/>
        </dia:attribute>
        <dia:attribute name="conn_endpoints">
          <dia:point val="45.32,13.5"/>
          <dia:point val="45.72,13.1"/>
        </dia:attribute>
        <dia:attribute name="numcp">
          <dia:int val="1"/>
        </dia:attribute>
      </dia:object>
      <dia:object type="Standard - Line" version="0" id="O63">
        <dia:attribute name="obj_pos">
          <dia:point val="46.32,13.2"/>
        </dia:attribute>
        <dia:attribute name="obj_bb">
          <dia:rectangle val="46.2493,12.7293;46.7907,13.2707"/>
        </dia:attribute>
        <dia:attribute name="conn_endpoints">
          <dia:point val="46.32,13.2"/>
          <dia:point val="46.72,12.8"/>
        </dia:attribute>
        <dia:attribute name="numcp">
          <dia:int val="1"/>
        </dia:attribute>
      </dia:object>
      <dia:object type="Standard - Line" version="0" id="O64">
        <dia:attribute name="obj_pos">
          <dia:point val="46.32,13.5"/>
        </dia:attribute>
        <dia:attribute name="obj_bb">
          <dia:rectangle val="46.2493,13.0293;46.7907,13.5707"/>
        </dia:attribute>
        <dia:attribute name="conn_endpoints">
          <dia:point val="46.32,13.5"/>
          <dia:point val="46.72,13.1"/>
        </dia:attribute>
        <dia:attribute name="numcp">
          <dia:int val="1"/>
        </dia:attribute>
      </dia:object>
    </dia:group>
    <dia:group>
      <dia:object type="Standard - Box" version="0" id="O65">
        <dia:attribute name="obj_pos">
          <dia:point val="28.84,18"/>
        </dia:attribute>
        <dia:attribute name="obj_bb">
          <dia:rectangle val="28.84,18;29.84,21"/>
        </dia:attribute>
        <dia:attribute name="elem_corner">
          <dia:point val="28.84,18"/>
        </dia:attribute>
        <dia:attribute name="elem_width">
          <dia:real val="1"/>
        </dia:attribute>
        <dia:attribute name="elem_height">
          <dia:real val="3"/>
        </dia:attribute>
        <dia:attribute name="border_width">
          <dia:real val="0"/>
        </dia:attribute>
        <dia:attribute name="border_color">
          <dia:color val="#ffffff"/>
        </dia:attribute>
        <dia:attribute name="show_background">
          <dia:boolean val="true"/>
        </dia:attribute>
        <dia:attribute name="corner_radius">
          <dia:real val="1.1754946310819804e-39"/>
        </dia:attribute>
      </dia:object>
      <dia:object type="Standard - Line" version="0" id="O66">
        <dia:attribute name="obj_pos">
          <dia:point val="28.84,18"/>
        </dia:attribute>
        <dia:attribute name="obj_bb">
          <dia:rectangle val="28.79,17.95;28.89,21.05"/>
        </dia:attribute>
        <dia:attribute name="conn_endpoints">
          <dia:point val="28.84,18"/>
          <dia:point val="28.84,21"/>
        </dia:attribute>
        <dia:attribute name="numcp">
          <dia:int val="1"/>
        </dia:attribute>
      </dia:object>
      <dia:object type="Standard - Line" version="0" id="O67">
        <dia:attribute name="obj_pos">
          <dia:point val="28.84,18"/>
        </dia:attribute>
        <dia:attribute name="obj_bb">
          <dia:rectangle val="28.79,17.95;29.89,18.05"/>
        </dia:attribute>
        <dia:attribute name="conn_endpoints">
          <dia:point val="28.84,18"/>
          <dia:point val="29.84,18"/>
        </dia:attribute>
        <dia:attribute name="numcp">
          <dia:int val="1"/>
        </dia:attribute>
      </dia:object>
      <dia:object type="Standard - Line" version="0" id="O68">
        <dia:attribute name="obj_pos">
          <dia:point val="29.84,18"/>
        </dia:attribute>
        <dia:attribute name="obj_bb">
          <dia:rectangle val="29.79,17.95;29.89,21.05"/>
        </dia:attribute>
        <dia:attribute name="conn_endpoints">
          <dia:point val="29.84,18"/>
          <dia:point val="29.84,21"/>
        </dia:attribute>
        <dia:attribute name="numcp">
          <dia:int val="1"/>
        </dia:attribute>
      </dia:object>
      <dia:object type="Standard - Line" version="0" id="O69">
        <dia:attribute name="obj_pos">
          <dia:point val="28.64,21.2"/>
        </dia:attribute>
        <dia:attribute name="obj_bb">
          <dia:rectangle val="28.5693,20.7293;29.1107,21.2707"/>
        </dia:attribute>
        <dia:attribute name="conn_endpoints">
          <dia:point val="28.64,21.2"/>
          <dia:point val="29.04,20.8"/>
        </dia:attribute>
        <dia:attribute name="numcp">
          <dia:int val="1"/>
        </dia:attribute>
      </dia:object>
      <dia:object type="Standard - Line" version="0" id="O70">
        <dia:attribute name="obj_pos">
          <dia:point val="29.64,21.2"/>
        </dia:attribute>
        <dia:attribute name="obj_bb">
          <dia:rectangle val="29.5693,20.7293;30.1107,21.2707"/>
        </dia:attribute>
        <dia:attribute name="conn_endpoints">
          <dia:point val="29.64,21.2"/>
          <dia:point val="30.04,20.8"/>
        </dia:attribute>
        <dia:attribute name="numcp">
          <dia:int val="1"/>
        </dia:attribute>
      </dia:object>
    </dia:group>
    <dia:object type="Standard - Line" version="0" id="O71">
      <dia:attribute name="obj_pos">
        <dia:point val="29.84,9"/>
      </dia:attribute>
      <dia:attribute name="obj_bb">
        <dia:rectangle val="29.79,8.5;36.95,9.5"/>
      </dia:attribute>
      <dia:attribute name="conn_endpoints">
        <dia:point val="29.84,9"/>
        <dia:point val="36.9,9"/>
      </dia:attribute>
      <dia:attribute name="numcp">
        <dia:int val="1"/>
      </dia:attribute>
      <dia:attribute name="end_arrow">
        <dia:enum val="1"/>
      </dia:attribute>
      <dia:attribute name="end_arrow_length">
        <dia:real val="0.5"/>
      </dia:attribute>
      <dia:attribute name="end_arrow_width">
        <dia:real val="0.5"/>
      </dia:attribute>
      <dia:connections>
        <dia:connection handle="0" to="O49" connection="7"/>
        <dia:connection handle="1" to="O52" connection="0"/>
      </dia:connections>
    </dia:object>
    <dia:object type="Standard - Line" version="0" id="O72">
      <dia:attribute name="obj_pos">
        <dia:point val="37.9,10"/>
      </dia:attribute>
      <dia:attribute name="obj_bb">
        <dia:rectangle val="37.85,9.5;45.57,10.5"/>
      </dia:attribute>
      <dia:attribute name="conn_endpoints">
        <dia:point val="37.9,10"/>
        <dia:point val="45.52,10"/>
      </dia:attribute>
      <dia:attribute name="numcp">
        <dia:int val="1"/>
      </dia:attribute>
      <dia:attribute name="end_arrow">
        <dia:enum val="1"/>
      </dia:attribute>
      <dia:attribute name="end_arrow_length">
        <dia:real val="0.5"/>
      </dia:attribute>
      <dia:attribute name="end_arrow_width">
        <dia:real val="0.5"/>
      </dia:attribute>
      <dia:connections>
        <dia:connection handle="0" to="O52" connection="7"/>
        <dia:connection handle="1" to="O54" connection="0"/>
      </dia:connections>
    </dia:object>
    <dia:object type="Standard - Line" version="0" id="O73">
      <dia:attribute name="obj_pos">
        <dia:point val="45.52,17"/>
      </dia:attribute>
      <dia:attribute name="obj_bb">
        <dia:rectangle val="37.95,16.5;45.57,17.5"/>
      </dia:attribute>
      <dia:attribute name="conn_endpoints">
        <dia:point val="45.52,17"/>
        <dia:point val="38,17"/>
      </dia:attribute>
      <dia:attribute name="numcp">
        <dia:int val="1"/>
      </dia:attribute>
      <dia:attribute name="end_arrow">
        <dia:enum val="1"/>
      </dia:attribute>
      <dia:attribute name="end_arrow_length">
        <dia:real val="0.5"/>
      </dia:attribute>
      <dia:attribute name="end_arrow_width">
        <dia:real val="0.5"/>
      </dia:attribute>
      <dia:connections>
        <dia:connection handle="0" to="O54" connection="5"/>
      </dia:connections>
    </dia:object>
    <dia:object type="Standard - Line" version="0" id="O74">
      <dia:attribute name="obj_pos">
        <dia:point val="36.9,18.02"/>
      </dia:attribute>
      <dia:attribute name="obj_bb">
        <dia:rectangle val="29.7886,17.4999;36.9501,18.5001"/>
      </dia:attribute>
      <dia:attribute name="conn_endpoints">
        <dia:point val="36.9,18.02"/>
        <dia:point val="29.84,18"/>
      </dia:attribute>
      <dia:attribute name="numcp">
        <dia:int val="1"/>
      </dia:attribute>
      <dia:attribute name="end_arrow">
        <dia:enum val="1"/>
      </dia:attribute>
      <dia:attribute name="end_arrow_length">
        <dia:real val="0.5"/>
      </dia:attribute>
      <dia:attribute name="end_arrow_width">
        <dia:real val="0.5"/>
      </dia:attribute>
      <dia:connections>
        <dia:connection handle="0" to="O53" connection="5"/>
        <dia:connection handle="1" to="O65" connection="2"/>
      </dia:connections>
    </dia:object>
    <dia:object type="Standard - Text" version="1" id="O75">
      <dia:attribute name="obj_pos">
        <dia:point val="32.65,8.65"/>
      </dia:attribute>
      <dia:attribute name="obj_bb">
        <dia:rectangle val="32.65,8.1;34,9.05"/>
      </dia:attribute>
      <dia:attribute name="text">
        <dia:composite type="text">
          <dia:attribute name="string">
            <dia:string>#task#</dia:string>
          </dia:attribute>
          <dia:attribute name="font">
            <dia:font family="sans" style="0" name="Helvetica"/>
          </dia:attribute>
          <dia:attribute name="height">
            <dia:real val="0.80000000000000004"/>
          </dia:attribute>
          <dia:attribute name="pos">
            <dia:point val="32.65,8.65"/>
          </dia:attribute>
          <dia:attribute name="color">
            <dia:color val="#000000"/>
          </dia:attribute>
          <dia:attribute name="alignment">
            <dia:enum val="0"/>
          </dia:attribute>
        </dia:composite>
      </dia:attribute>
      <dia:attribute name="valign">
        <dia:enum val="3"/>
      </dia:attribute>
    </dia:object>
    <dia:object type="Standard - Text" version="1" id="O76">
      <dia:attribute name="obj_pos">
        <dia:point val="41.242,9.664"/>
      </dia:attribute>
      <dia:attribute name="obj_bb">
        <dia:rectangle val="41.242,9.114;42.592,10.064"/>
      </dia:attribute>
      <dia:attribute name="text">
        <dia:composite type="text">
          <dia:attribute name="string">
            <dia:string>#task#</dia:string>
          </dia:attribute>
          <dia:attribute name="font">
            <dia:font family="sans" style="0" name="Helvetica"/>
          </dia:attribute>
          <dia:attribute name="height">
            <dia:real val="0.80000000000000004"/>
          </dia:attribute>
          <dia:attribute name="pos">
            <dia:point val="41.242,9.664"/>
          </dia:attribute>
          <dia:attribute name="color">
            <dia:color val="#000000"/>
          </dia:attribute>
          <dia:attribute name="alignment">
            <dia:enum val="0"/>
          </dia:attribute>
        </dia:composite>
      </dia:attribute>
      <dia:attribute name="valign">
        <dia:enum val="3"/>
      </dia:attribute>
    </dia:object>
    <dia:object type="Standard - Text" version="1" id="O77">
      <dia:attribute name="obj_pos">
        <dia:point val="41.01,17.844"/>
      </dia:attribute>
      <dia:attribute name="obj_bb">
        <dia:rectangle val="41.01,17.294;42.81,18.244"/>
      </dia:attribute>
      <dia:attribute name="text">
        <dia:composite type="text">
          <dia:attribute name="string">
            <dia:string>#result#</dia:string>
          </dia:attribute>
          <dia:attribute name="font">
            <dia:font family="sans" style="0" name="Helvetica"/>
          </dia:attribute>
          <dia:attribute name="height">
            <dia:real val="0.80000000000000004"/>
          </dia:attribute>
          <dia:attribute name="pos">
            <dia:point val="41.01,17.844"/>
          </dia:attribute>
          <dia:attribute name="color">
            <dia:color val="#000000"/>
          </dia:attribute>
          <dia:attribute name="alignment">
            <dia:enum val="0"/>
          </dia:attribute>
        </dia:composite>
      </dia:attribute>
      <dia:attribute name="valign">
        <dia:enum val="3"/>
      </dia:attribute>
    </dia:object>
    <dia:object type="Standard - Text" version="1" id="O78">
      <dia:attribute name="obj_pos">
        <dia:point val="32.572,18.834"/>
      </dia:attribute>
      <dia:attribute name="obj_bb">
        <dia:rectangle val="32.572,18.284;34.372,19.234"/>
      </dia:attribute>
      <dia:attribute name="text">
        <dia:composite type="text">
          <dia:attribute name="string">
            <dia:string>#result#</dia:string>
          </dia:attribute>
          <dia:attribute name="font">
            <dia:font family="sans" style="0" name="Helvetica"/>
          </dia:attribute>
          <dia:attribute name="height">
            <dia:real val="0.80000000000000004"/>
          </dia:attribute>
          <dia:attribute name="pos">
            <dia:point val="32.572,18.834"/>
          </dia:attribute>
          <dia:attribute name="color">
            <dia:color val="#000000"/>
          </dia:attribute>
          <dia:attribute name="alignment">
            <dia:enum val="0"/>
          </dia:attribute>
        </dia:composite>
      </dia:attribute>
      <dia:attribute name="valign">
        <dia:enum val="3"/>
      </dia:attribute>
    </dia:object>
    <dia:object type="Standard - Line" version="0" id="O79">
      <dia:attribute name="obj_pos">
        <dia:point val="26.2929,3.29289"/>
      </dia:attribute>
      <dia:attribute name="obj_bb">
        <dia:rectangle val="26.225,1.93214;27.0679,3.36075"/>
      </dia:attribute>
      <dia:attribute name="conn_endpoints">
        <dia:point val="26.2929,3.29289"/>
        <dia:point val="27,2"/>
      </dia:attribute>
      <dia:attribute name="numcp">
        <dia:int val="1"/>
      </dia:attribute>
      <dia:attribute name="line_color">
        <dia:color val="#525252"/>
      </dia:attribute>
      <dia:attribute name="line_style">
        <dia:enum val="4"/>
      </dia:attribute>
      <dia:connections>
        <dia:connection handle="0" to="O40" connection="0"/>
      </dia:connections>
    </dia:object>
    <dia:object type="Standard - Box" version="0" id="O80">
      <dia:attribute name="obj_pos">
        <dia:point val="36.9,12.6"/>
      </dia:attribute>
      <dia:attribute name="obj_bb">
        <dia:rectangle val="36.85,12.55;37.95,13.65"/>
      </dia:attribute>
      <dia:attribute name="elem_corner">
        <dia:point val="36.9,12.6"/>
      </dia:attribute>
      <dia:attribute name="elem_width">
        <dia:real val="1"/>
      </dia:attribute>
      <dia:attribute name="elem_height">
        <dia:real val="1"/>
      </dia:attribute>
      <dia:attribute name="show_background">
        <dia:boolean val="true"/>
      </dia:attribute>
    </dia:object>
    <dia:group>
      <dia:object type="Standard - Box" version="0" id="O81">
        <dia:attribute name="obj_pos">
          <dia:point val="28.84,10"/>
        </dia:attribute>
        <dia:attribute name="obj_bb">
          <dia:rectangle val="28.84,10;29.84,12.6"/>
        </dia:attribute>
        <dia:attribute name="elem_corner">
          <dia:point val="28.84,10"/>
        </dia:attribute>
        <dia:attribute name="elem_width">
          <dia:real val="1"/>
        </dia:attribute>
        <dia:attribute name="elem_height">
          <dia:real val="2.6000000000000014"/>
        </dia:attribute>
        <dia:attribute name="border_width">
          <dia:real val="0"/>
        </dia:attribute>
        <dia:attribute name="border_color">
          <dia:color val="#ffffff"/>
        </dia:attribute>
        <dia:attribute name="show_background">
          <dia:boolean val="true"/>
        </dia:attribute>
        <dia:attribute name="corner_radius">
          <dia:real val="1.1754946310819804e-39"/>
        </dia:attribute>
      </dia:object>
      <dia:object type="Standard - Line" version="0" id="O82">
        <dia:attribute name="obj_pos">
          <dia:point val="28.84,12.6"/>
        </dia:attribute>
        <dia:attribute name="obj_bb">
          <dia:rectangle val="28.79,12.55;29.89,12.65"/>
        </dia:attribute>
        <dia:attribute name="conn_endpoints">
          <dia:point val="28.84,12.6"/>
          <dia:point val="29.84,12.6"/>
        </dia:attribute>
        <dia:attribute name="numcp">
          <dia:int val="1"/>
        </dia:attribute>
        <dia:connections>
          <dia:connection handle="0" to="O81" connection="5"/>
          <dia:connection handle="1" to="O81" connection="7"/>
        </dia:connections>
      </dia:object>
      <dia:object type="Standard - Line" version="0" id="O83">
        <dia:attribute name="obj_pos">
          <dia:point val="29.84,12.6"/>
        </dia:attribute>
        <dia:attribute name="obj_bb">
          <dia:rectangle val="29.79,11.25;29.89,12.65"/>
        </dia:attribute>
        <dia:attribute name="conn_endpoints">
          <dia:point val="29.84,12.6"/>
          <dia:point val="29.84,11.3"/>
        </dia:attribute>
        <dia:attribute name="numcp">
          <dia:int val="1"/>
        </dia:attribute>
        <dia:connections>
          <dia:connection handle="0" to="O81" connection="7"/>
          <dia:connection handle="1" to="O91" connection="0"/>
        </dia:connections>
      </dia:object>
      <dia:object type="Standard - Line" version="0" id="O84">
        <dia:attribute name="obj_pos">
          <dia:point val="28.84,10"/>
        </dia:attribute>
        <dia:attribute name="obj_bb">
          <dia:rectangle val="28.79,9.95;29.89,10.05"/>
        </dia:attribute>
        <dia:attribute name="conn_endpoints">
          <dia:point val="28.84,10"/>
          <dia:point val="29.84,10"/>
        </dia:attribute>
        <dia:attribute name="numcp">
          <dia:int val="1"/>
        </dia:attribute>
        <dia:connections>
          <dia:connection handle="0" to="O81" connection="0"/>
          <dia:connection handle="1" to="O81" connection="2"/>
        </dia:connections>
      </dia:object>
      <dia:object type="Standard - Line" version="0" id="O85">
        <dia:attribute name="obj_pos">
          <dia:point val="29.84,10"/>
        </dia:attribute>
        <dia:attribute name="obj_bb">
          <dia:rectangle val="29.79,9.95;29.89,11.05"/>
        </dia:attribute>
        <dia:attribute name="conn_endpoints">
          <dia:point val="29.84,10"/>
          <dia:point val="29.84,11"/>
        </dia:attribute>
        <dia:attribute name="numcp">
          <dia:int val="1"/>
        </dia:attribute>
        <dia:connections>
          <dia:connection handle="0" to="O81" connection="2"/>
          <dia:connection handle="1" to="O90" connection="0"/>
        </dia:connections>
      </dia:object>
      <dia:object type="Standard - Line" version="0" id="O86">
        <dia:attribute name="obj_pos">
          <dia:point val="28.84,10"/>
        </dia:attribute>
        <dia:attribute name="obj_bb">
          <dia:rectangle val="28.79,9.95;28.89,11.05"/>
        </dia:attribute>
        <dia:attribute name="conn_endpoints">
          <dia:point val="28.84,10"/>
          <dia:point val="28.84,11"/>
        </dia:attribute>
        <dia:attribute name="numcp">
          <dia:int val="1"/>
        </dia:attribute>
        <dia:connections>
          <dia:connection handle="0" to="O81" connection="0"/>
          <dia:connection handle="1" to="O88" connection="0"/>
        </dia:connections>
      </dia:object>
      <dia:object type="Standard - Line" version="0" id="O87">
        <dia:attribute name="obj_pos">
          <dia:point val="28.84,11.3"/>
        </dia:attribute>
        <dia:attribute name="obj_bb">
          <dia:rectangle val="28.79,11.25;28.89,12.65"/>
        </dia:attribute>
        <dia:attribute name="conn_endpoints">
          <dia:point val="28.84,11.3"/>
          <dia:point val="28.84,12.6"/>
        </dia:attribute>
        <dia:attribute name="numcp">
          <dia:int val="1"/>
        </dia:attribute>
        <dia:connections>
          <dia:connection handle="0" to="O89" connection="0"/>
          <dia:connection handle="1" to="O81" connection="5"/>
        </dia:connections>
      </dia:object>
      <dia:object type="Standard - Line" version="0" id="O88">
        <dia:attribute name="obj_pos">
          <dia:point val="28.64,11.2"/>
        </dia:attribute>
        <dia:attribute name="obj_bb">
          <dia:rectangle val="28.5693,10.7293;29.1107,11.2707"/>
        </dia:attribute>
        <dia:attribute name="conn_endpoints">
          <dia:point val="28.64,11.2"/>
          <dia:point val="29.04,10.8"/>
        </dia:attribute>
        <dia:attribute name="numcp">
          <dia:int val="1"/>
        </dia:attribute>
      </dia:object>
      <dia:object type="Standard - Line" version="0" id="O89">
        <dia:attribute name="obj_pos">
          <dia:point val="28.64,11.5"/>
        </dia:attribute>
        <dia:attribute name="obj_bb">
          <dia:rectangle val="28.5693,11.0293;29.1107,11.5707"/>
        </dia:attribute>
        <dia:attribute name="conn_endpoints">
          <dia:point val="28.64,11.5"/>
          <dia:point val="29.04,11.1"/>
        </dia:attribute>
        <dia:attribute name="numcp">
          <dia:int val="1"/>
        </dia:attribute>
      </dia:object>
      <dia:object type="Standard - Line" version="0" id="O90">
        <dia:attribute name="obj_pos">
          <dia:point val="29.64,11.2"/>
        </dia:attribute>
        <dia:attribute name="obj_bb">
          <dia:rectangle val="29.5693,10.7293;30.1107,11.2707"/>
        </dia:attribute>
        <dia:attribute name="conn_endpoints">
          <dia:point val="29.64,11.2"/>
          <dia:point val="30.04,10.8"/>
        </dia:attribute>
        <dia:attribute name="numcp">
          <dia:int val="1"/>
        </dia:attribute>
      </dia:object>
      <dia:object type="Standard - Line" version="0" id="O91">
        <dia:attribute name="obj_pos">
          <dia:point val="29.64,11.5"/>
        </dia:attribute>
        <dia:attribute name="obj_bb">
          <dia:rectangle val="29.5693,11.0293;30.1107,11.5707"/>
        </dia:attribute>
        <dia:attribute name="conn_endpoints">
          <dia:point val="29.64,11.5"/>
          <dia:point val="30.04,11.1"/>
        </dia:attribute>
        <dia:attribute name="numcp">
          <dia:int val="1"/>
        </dia:attribute>
      </dia:object>
    </dia:group>
    <dia:group>
      <dia:object type="Standard - Box" version="0" id="O92">
        <dia:attribute name="obj_pos">
          <dia:point val="28.84,13.6"/>
        </dia:attribute>
        <dia:attribute name="obj_bb">
          <dia:rectangle val="28.84,13.6;29.84,16.2"/>
        </dia:attribute>
        <dia:attribute name="elem_corner">
          <dia:point val="28.84,13.6"/>
        </dia:attribute>
        <dia:attribute name="elem_width">
          <dia:real val="1"/>
        </dia:attribute>
        <dia:attribute name="elem_height">
          <dia:real val="2.6000000000000014"/>
        </dia:attribute>
        <dia:attribute name="border_width">
          <dia:real val="0"/>
        </dia:attribute>
        <dia:attribute name="border_color">
          <dia:color val="#ffffff"/>
        </dia:attribute>
        <dia:attribute name="show_background">
          <dia:boolean val="true"/>
        </dia:attribute>
        <dia:attribute name="corner_radius">
          <dia:real val="1.1754946310819804e-39"/>
        </dia:attribute>
      </dia:object>
      <dia:object type="Standard - Line" version="0" id="O93">
        <dia:attribute name="obj_pos">
          <dia:point val="28.84,16.2"/>
        </dia:attribute>
        <dia:attribute name="obj_bb">
          <dia:rectangle val="28.79,16.15;29.89,16.25"/>
        </dia:attribute>
        <dia:attribute name="conn_endpoints">
          <dia:point val="28.84,16.2"/>
          <dia:point val="29.84,16.2"/>
        </dia:attribute>
        <dia:attribute name="numcp">
          <dia:int val="1"/>
        </dia:attribute>
        <dia:connections>
          <dia:connection handle="0" to="O92" connection="5"/>
          <dia:connection handle="1" to="O92" connection="7"/>
        </dia:connections>
      </dia:object>
      <dia:object type="Standard - Line" version="0" id="O94">
        <dia:attribute name="obj_pos">
          <dia:point val="29.84,16.2"/>
        </dia:attribute>
        <dia:attribute name="obj_bb">
          <dia:rectangle val="29.79,14.85;29.89,16.25"/>
        </dia:attribute>
        <dia:attribute name="conn_endpoints">
          <dia:point val="29.84,16.2"/>
          <dia:point val="29.84,14.9"/>
        </dia:attribute>
        <dia:attribute name="numcp">
          <dia:int val="1"/>
        </dia:attribute>
        <dia:connections>
          <dia:connection handle="0" to="O92" connection="7"/>
          <dia:connection handle="1" to="O102" connection="0"/>
        </dia:connections>
      </dia:object>
      <dia:object type="Standard - Line" version="0" id="O95">
        <dia:attribute name="obj_pos">
          <dia:point val="28.84,13.6"/>
        </dia:attribute>
        <dia:attribute name="obj_bb">
          <dia:rectangle val="28.79,13.55;29.89,13.65"/>
        </dia:attribute>
        <dia:attribute name="conn_endpoints">
          <dia:point val="28.84,13.6"/>
          <dia:point val="29.84,13.6"/>
        </dia:attribute>
        <dia:attribute name="numcp">
          <dia:int val="1"/>
        </dia:attribute>
        <dia:connections>
          <dia:connection handle="0" to="O92" connection="0"/>
          <dia:connection handle="1" to="O92" connection="2"/>
        </dia:connections>
      </dia:object>
      <dia:object type="Standard - Line" version="0" id="O96">
        <dia:attribute name="obj_pos">
          <dia:point val="29.84,13.6"/>
        </dia:attribute>
        <dia:attribute name="obj_bb">
          <dia:rectangle val="29.79,13.55;29.89,14.65"/>
        </dia:attribute>
        <dia:attribute name="conn_endpoints">
          <dia:point val="29.84,13.6"/>
          <dia:point val="29.84,14.6"/>
        </dia:attribute>
        <dia:attribute name="numcp">
          <dia:int val="1"/>
        </dia:attribute>
        <dia:connections>
          <dia:connection handle="0" to="O92" connection="2"/>
          <dia:connection handle="1" to="O101" connection="0"/>
        </dia:connections>
      </dia:object>
      <dia:object type="Standard - Line" version="0" id="O97">
        <dia:attribute name="obj_pos">
          <dia:point val="28.84,13.6"/>
        </dia:attribute>
        <dia:attribute name="obj_bb">
          <dia:rectangle val="28.79,13.55;28.89,14.65"/>
        </dia:attribute>
        <dia:attribute name="conn_endpoints">
          <dia:point val="28.84,13.6"/>
          <dia:point val="28.84,14.6"/>
        </dia:attribute>
        <dia:attribute name="numcp">
          <dia:int val="1"/>
        </dia:attribute>
        <dia:connections>
          <dia:connection handle="0" to="O92" connection="0"/>
          <dia:connection handle="1" to="O99" connection="0"/>
        </dia:connections>
      </dia:object>
      <dia:object type="Standard - Line" version="0" id="O98">
        <dia:attribute name="obj_pos">
          <dia:point val="28.84,14.9"/>
        </dia:attribute>
        <dia:attribute name="obj_bb">
          <dia:rectangle val="28.79,14.85;28.89,16.25"/>
        </dia:attribute>
        <dia:attribute name="conn_endpoints">
          <dia:point val="28.84,14.9"/>
          <dia:point val="28.84,16.2"/>
        </dia:attribute>
        <dia:attribute name="numcp">
          <dia:int val="1"/>
        </dia:attribute>
        <dia:connections>
          <dia:connection handle="0" to="O100" connection="0"/>
          <dia:connection handle="1" to="O92" connection="5"/>
        </dia:connections>
      </dia:object>
      <dia:object type="Standard - Line" version="0" id="O99">
        <dia:attribute name="obj_pos">
          <dia:point val="28.64,14.8"/>
        </dia:attribute>
        <dia:attribute name="obj_bb">
          <dia:rectangle val="28.5693,14.3293;29.1107,14.8707"/>
        </dia:attribute>
        <dia:attribute name="conn_endpoints">
          <dia:point val="28.64,14.8"/>
          <dia:point val="29.04,14.4"/>
        </dia:attribute>
        <dia:attribute name="numcp">
          <dia:int val="1"/>
        </dia:attribute>
      </dia:object>
      <dia:object type="Standard - Line" version="0" id="O100">
        <dia:attribute name="obj_pos">
          <dia:point val="28.64,15.1"/>
        </dia:attribute>
        <dia:attribute name="obj_bb">
          <dia:rectangle val="28.5693,14.6293;29.1107,15.1707"/>
        </dia:attribute>
        <dia:attribute name="conn_endpoints">
          <dia:point val="28.64,15.1"/>
          <dia:point val="29.04,14.7"/>
        </dia:attribute>
        <dia:attribute name="numcp">
          <dia:int val="1"/>
        </dia:attribute>
      </dia:object>
      <dia:object type="Standard - Line" version="0" id="O101">
        <dia:attribute name="obj_pos">
          <dia:point val="29.64,14.8"/>
        </dia:attribute>
        <dia:attribute name="obj_bb">
          <dia:rectangle val="29.5693,14.3293;30.1107,14.8707"/>
        </dia:attribute>
        <dia:attribute name="conn_endpoints">
          <dia:point val="29.64,14.8"/>
          <dia:point val="30.04,14.4"/>
        </dia:attribute>
        <dia:attribute name="numcp">
          <dia:int val="1"/>
        </dia:attribute>
      </dia:object>
      <dia:object type="Standard - Line" version="0" id="O102">
        <dia:attribute name="obj_pos">
          <dia:point val="29.64,15.1"/>
        </dia:attribute>
        <dia:attribute name="obj_bb">
          <dia:rectangle val="29.5693,14.6293;30.1107,15.1707"/>
        </dia:attribute>
        <dia:attribute name="conn_endpoints">
          <dia:point val="29.64,15.1"/>
          <dia:point val="30.04,14.7"/>
        </dia:attribute>
        <dia:attribute name="numcp">
          <dia:int val="1"/>
        </dia:attribute>
      </dia:object>
    </dia:group>
    <dia:object type="Standard - Line" version="0" id="O103">
      <dia:attribute name="obj_pos">
        <dia:point val="36.9,10"/>
      </dia:attribute>
      <dia:attribute name="obj_bb">
        <dia:rectangle val="29.79,9.5;36.95,10.5"/>
      </dia:attribute>
      <dia:attribute name="conn_endpoints">
        <dia:point val="36.9,10"/>
        <dia:point val="29.84,10"/>
      </dia:attribute>
      <dia:attribute name="numcp">
        <dia:int val="1"/>
      </dia:attribute>
      <dia:attribute name="end_arrow">
        <dia:enum val="1"/>
      </dia:attribute>
      <dia:attribute name="end_arrow_length">
        <dia:real val="0.5"/>
      </dia:attribute>
      <dia:attribute name="end_arrow_width">
        <dia:real val="0.5"/>
      </dia:attribute>
      <dia:connections>
        <dia:connection handle="0" to="O52" connection="5"/>
        <dia:connection handle="1" to="O81" connection="2"/>
      </dia:connections>
    </dia:object>
    <dia:object type="Standard - Line" version="0" id="O104">
      <dia:attribute name="obj_pos">
        <dia:point val="29.84,12.6"/>
      </dia:attribute>
      <dia:attribute name="obj_bb">
        <dia:rectangle val="29.79,12.1;36.95,13.1"/>
      </dia:attribute>
      <dia:attribute name="conn_endpoints">
        <dia:point val="29.84,12.6"/>
        <dia:point val="36.9,12.6"/>
      </dia:attribute>
      <dia:attribute name="numcp">
        <dia:int val="1"/>
      </dia:attribute>
      <dia:attribute name="end_arrow">
        <dia:enum val="1"/>
      </dia:attribute>
      <dia:attribute name="end_arrow_length">
        <dia:real val="0.5"/>
      </dia:attribute>
      <dia:attribute name="end_arrow_width">
        <dia:real val="0.5"/>
      </dia:attribute>
      <dia:connections>
        <dia:connection handle="0" to="O81" connection="7"/>
        <dia:connection handle="1" to="O80" connection="0"/>
      </dia:connections>
    </dia:object>
    <dia:object type="Standard - Line" version="0" id="O105">
      <dia:attribute name="obj_pos">
        <dia:point val="36.9,13.6"/>
      </dia:attribute>
      <dia:attribute name="obj_bb">
        <dia:rectangle val="29.79,13.1;36.95,14.1"/>
      </dia:attribute>
      <dia:attribute name="conn_endpoints">
        <dia:point val="36.9,13.6"/>
        <dia:point val="29.84,13.6"/>
      </dia:attribute>
      <dia:attribute name="numcp">
        <dia:int val="1"/>
      </dia:attribute>
      <dia:attribute name="end_arrow">
        <dia:enum val="1"/>
      </dia:attribute>
      <dia:attribute name="end_arrow_length">
        <dia:real val="0.5"/>
      </dia:attribute>
      <dia:attribute name="end_arrow_width">
        <dia:real val="0.5"/>
      </dia:attribute>
      <dia:connections>
        <dia:connection handle="0" to="O80" connection="5"/>
        <dia:connection handle="1" to="O92" connection="2"/>
      </dia:connections>
    </dia:object>
    <dia:object type="Standard - Line" version="0" id="O106">
      <dia:attribute name="obj_pos">
        <dia:point val="29.84,16.2"/>
      </dia:attribute>
      <dia:attribute name="obj_bb">
        <dia:rectangle val="29.79,15.7;36.95,16.7"/>
      </dia:attribute>
      <dia:attribute name="conn_endpoints">
        <dia:point val="29.84,16.2"/>
        <dia:point val="36.9,16.2"/>
      </dia:attribute>
      <dia:attribute name="numcp">
        <dia:int val="1"/>
      </dia:attribute>
      <dia:attribute name="end_arrow">
        <dia:enum val="1"/>
      </dia:attribute>
      <dia:attribute name="end_arrow_length">
        <dia:real val="0.5"/>
      </dia:attribute>
      <dia:attribute name="end_arrow_width">
        <dia:real val="0.5"/>
      </dia:attribute>
      <dia:connections>
        <dia:connection handle="0" to="O92" connection="7"/>
        <dia:connection handle="1" to="O53" connection="0"/>
      </dia:connections>
    </dia:object>
    <dia:object type="Standard - Text" version="1" id="O107">
      <dia:attribute name="obj_pos">
        <dia:point val="32.3028,10.7498"/>
      </dia:attribute>
      <dia:attribute name="obj_bb">
        <dia:rectangle val="32.3028,10.1998;34.7028,11.1498"/>
      </dia:attribute>
      <dia:attribute name="text">
        <dia:composite type="text">
          <dia:attribute name="string">
            <dia:string>#try later#</dia:string>
          </dia:attribute>
          <dia:attribute name="font">
            <dia:font family="sans" style="8" name="Helvetica-Oblique"/>
          </dia:attribute>
          <dia:attribute name="height">
            <dia:real val="0.80000000000000004"/>
          </dia:attribute>
          <dia:attribute name="pos">
            <dia:point val="32.3028,10.7498"/>
          </dia:attribute>
          <dia:attribute name="color">
            <dia:color val="#000000"/>
          </dia:attribute>
          <dia:attribute name="alignment">
            <dia:enum val="0"/>
          </dia:attribute>
        </dia:composite>
      </dia:attribute>
      <dia:attribute name="valign">
        <dia:enum val="3"/>
      </dia:attribute>
    </dia:object>
    <dia:object type="Standard - Text" version="1" id="O108">
      <dia:attribute name="obj_pos">
        <dia:point val="32.3988,12.2858"/>
      </dia:attribute>
      <dia:attribute name="obj_bb">
        <dia:rectangle val="32.3988,11.7358;34.7988,12.6858"/>
      </dia:attribute>
      <dia:attribute name="text">
        <dia:composite type="text">
          <dia:attribute name="string">
            <dia:string>#tryjoin()#</dia:string>
          </dia:attribute>
          <dia:attribute name="font">
            <dia:font family="sans" style="0" name="Helvetica"/>
          </dia:attribute>
          <dia:attribute name="height">
            <dia:real val="0.80000000000000004"/>
          </dia:attribute>
          <dia:attribute name="pos">
            <dia:point val="32.3988,12.2858"/>
          </dia:attribute>
          <dia:attribute name="color">
            <dia:color val="#000000"/>
          </dia:attribute>
          <dia:attribute name="alignment">
            <dia:enum val="0"/>
          </dia:attribute>
        </dia:composite>
      </dia:attribute>
      <dia:attribute name="valign">
        <dia:enum val="3"/>
      </dia:attribute>
    </dia:object>
    <dia:object type="Standard - Text" version="1" id="O109">
      <dia:attribute name="obj_pos">
        <dia:point val="32.2868,14.311"/>
      </dia:attribute>
      <dia:attribute name="obj_bb">
        <dia:rectangle val="32.2868,13.761;34.6868,14.711"/>
      </dia:attribute>
      <dia:attribute name="text">
        <dia:composite type="text">
          <dia:attribute name="string">
            <dia:string>#try later#</dia:string>
          </dia:attribute>
          <dia:attribute name="font">
            <dia:font family="sans" style="8" name="Helvetica-Oblique"/>
          </dia:attribute>
          <dia:attribute name="height">
            <dia:real val="0.80000000000000004"/>
          </dia:attribute>
          <dia:attribute name="pos">
            <dia:point val="32.2868,14.311"/>
          </dia:attribute>
          <dia:attribute name="color">
            <dia:color val="#000000"/>
          </dia:attribute>
          <dia:attribute name="alignment">
            <dia:enum val="0"/>
          </dia:attribute>
        </dia:composite>
      </dia:attribute>
      <dia:attribute name="valign">
        <dia:enum val="3"/>
      </dia:attribute>
    </dia:object>
    <dia:object type="Standard - Text" version="1" id="O110">
      <dia:attribute name="obj_pos">
        <dia:point val="32.6868,15.8698"/>
      </dia:attribute>
      <dia:attribute name="obj_bb">
        <dia:rectangle val="32.6868,15.3198;34.2868,16.2698"/>
      </dia:attribute>
      <dia:attribute name="text">
        <dia:composite type="text">
          <dia:attribute name="string">
            <dia:string>#join()#</dia:string>
          </dia:attribute>
          <dia:attribute name="font">
            <dia:font family="sans" style="0" name="Helvetica"/>
          </dia:attribute>
          <dia:attribute name="height">
            <dia:real val="0.80000000000000004"/>
          </dia:attribute>
          <dia:attribute name="pos">
            <dia:point val="32.6868,15.8698"/>
          </dia:attribute>
          <dia:attribute name="color">
            <dia:color val="#000000"/>
          </dia:attribute>
          <dia:attribute name="alignment">
            <dia:enum val="0"/>
          </dia:attribute>
        </dia:composite>
      </dia:attribute>
      <dia:attribute name="valign">
        <dia:enum val="3"/>
      </dia:attribute>
    </dia:object>
  </dia:layer>
</dia:diagram>
