%!PS-Adobe-2.0 EPSF-2.0
%%Title: /home/filip/wrk/diplomka/libexcom/doc/diagrams/compression_chain.dia
%%Creator: Dia v0.95-1
%%CreationDate: Thu Apr 30 00:05:47 2009
%%For: filip
%%Orientation: Portrait
%%Magnification: 1.0000
%%BoundingBox: 0 0 1063 684
%%BeginSetup
%%EndSetup
%%EndComments
%%BeginProlog
[ /.notdef /.notdef /.notdef /.notdef /.notdef /.notdef /.notdef /.notdef /.notdef /.notdef
/.notdef /.notdef /.notdef /.notdef /.notdef /.notdef /.notdef /.notdef /.notdef /.notdef
/.notdef /.notdef /.notdef /.notdef /.notdef /.notdef /.notdef /.notdef /.notdef /.notdef
/.notdef /.notdef /space /exclam /quotedbl /numbersign /dollar /percent /ampersand /quoteright
/parenleft /parenright /asterisk /plus /comma /hyphen /period /slash /zero /one
/two /three /four /five /six /seven /eight /nine /colon /semicolon
/less /equal /greater /question /at /A /B /C /D /E
/F /G /H /I /J /K /L /M /N /O
/P /Q /R /S /T /U /V /W /X /Y
/Z /bracketleft /backslash /bracketright /asciicircum /underscore /quoteleft /a /b /c
/d /e /f /g /h /i /j /k /l /m
/n /o /p /q /r /s /t /u /v /w
/x /y /z /braceleft /bar /braceright /asciitilde /.notdef /.notdef /.notdef
/.notdef /.notdef /.notdef /.notdef /.notdef /.notdef /.notdef /.notdef /.notdef /.notdef
/.notdef /.notdef /.notdef /.notdef /.notdef /.notdef /.notdef /.notdef /.notdef /.notdef
/.notdef /.notdef /.notdef /.notdef /.notdef /.notdef /.notdef /.notdef /.notdef /.notdef
/space /exclamdown /cent /sterling /currency /yen /brokenbar /section /dieresis /copyright
/ordfeminine /guillemotleft /logicalnot /hyphen /registered /macron /degree /plusminus /twosuperior /threesuperior
/acute /mu /paragraph /periodcentered /cedilla /onesuperior /ordmasculine /guillemotright /onequarter /onehalf
/threequarters /questiondown /Agrave /Aacute /Acircumflex /Atilde /Adieresis /Aring /AE /Ccedilla
/Egrave /Eacute /Ecircumflex /Edieresis /Igrave /Iacute /Icircumflex /Idieresis /Eth /Ntilde
/Ograve /Oacute /Ocircumflex /Otilde /Odieresis /multiply /Oslash /Ugrave /Uacute /Ucircumflex
/Udieresis /Yacute /Thorn /germandbls /agrave /aacute /acircumflex /atilde /adieresis /aring
/ae /ccedilla /egrave /eacute /ecircumflex /edieresis /igrave /iacute /icircumflex /idieresis
/eth /ntilde /ograve /oacute /ocircumflex /otilde /odieresis /divide /oslash /ugrave
/uacute /ucircumflex /udieresis /yacute /thorn /ydieresis] /isolatin1encoding exch def
/cp {closepath} bind def
/c {curveto} bind def
/f {fill} bind def
/a {arc} bind def
/ef {eofill} bind def
/ex {exch} bind def
/gr {grestore} bind def
/gs {gsave} bind def
/sa {save} bind def
/rs {restore} bind def
/l {lineto} bind def
/m {moveto} bind def
/rm {rmoveto} bind def
/n {newpath} bind def
/s {stroke} bind def
/sh {show} bind def
/slc {setlinecap} bind def
/slj {setlinejoin} bind def
/slw {setlinewidth} bind def
/srgb {setrgbcolor} bind def
/rot {rotate} bind def
/sc {scale} bind def
/sd {setdash} bind def
/ff {findfont} bind def
/sf {setfont} bind def
/scf {scalefont} bind def
/sw {stringwidth pop} bind def
/tr {translate} bind def

/ellipsedict 8 dict def
ellipsedict /mtrx matrix put
/ellipse
{ ellipsedict begin
   /endangle exch def
   /startangle exch def
   /yrad exch def
   /xrad exch def
   /y exch def
   /x exch def   /savematrix mtrx currentmatrix def
   x y tr xrad yrad sc
   0 0 1 startangle endangle arc
   savematrix setmatrix
   end
} def

/mergeprocs {
dup length
3 -1 roll
dup
length
dup
5 1 roll
3 -1 roll
add
array cvx
dup
3 -1 roll
0 exch
putinterval
dup
4 2 roll
putinterval
} bind def
/Times-Roman-latin1
    /Times-Roman findfont
    dup length dict begin
	{1 index /FID ne {def} {pop pop} ifelse} forall
	/Encoding isolatin1encoding def
    currentdict end
definefont pop
/Times-Italic-latin1
    /Times-Italic findfont
    dup length dict begin
	{1 index /FID ne {def} {pop pop} ifelse} forall
	/Encoding isolatin1encoding def
    currentdict end
definefont pop
/Times-Bold-latin1
    /Times-Bold findfont
    dup length dict begin
	{1 index /FID ne {def} {pop pop} ifelse} forall
	/Encoding isolatin1encoding def
    currentdict end
definefont pop
/Times-BoldItalic-latin1
    /Times-BoldItalic findfont
    dup length dict begin
	{1 index /FID ne {def} {pop pop} ifelse} forall
	/Encoding isolatin1encoding def
    currentdict end
definefont pop
/AvantGarde-Book-latin1
    /AvantGarde-Book findfont
    dup length dict begin
	{1 index /FID ne {def} {pop pop} ifelse} forall
	/Encoding isolatin1encoding def
    currentdict end
definefont pop
/AvantGarde-BookOblique-latin1
    /AvantGarde-BookOblique findfont
    dup length dict begin
	{1 index /FID ne {def} {pop pop} ifelse} forall
	/Encoding isolatin1encoding def
    currentdict end
definefont pop
/AvantGarde-Demi-latin1
    /AvantGarde-Demi findfont
    dup length dict begin
	{1 index /FID ne {def} {pop pop} ifelse} forall
	/Encoding isolatin1encoding def
    currentdict end
definefont pop
/AvantGarde-DemiOblique-latin1
    /AvantGarde-DemiOblique findfont
    dup length dict begin
	{1 index /FID ne {def} {pop pop} ifelse} forall
	/Encoding isolatin1encoding def
    currentdict end
definefont pop
/Bookman-Light-latin1
    /Bookman-Light findfont
    dup length dict begin
	{1 index /FID ne {def} {pop pop} ifelse} forall
	/Encoding isolatin1encoding def
    currentdict end
definefont pop
/Bookman-LightItalic-latin1
    /Bookman-LightItalic findfont
    dup length dict begin
	{1 index /FID ne {def} {pop pop} ifelse} forall
	/Encoding isolatin1encoding def
    currentdict end
definefont pop
/Bookman-Demi-latin1
    /Bookman-Demi findfont
    dup length dict begin
	{1 index /FID ne {def} {pop pop} ifelse} forall
	/Encoding isolatin1encoding def
    currentdict end
definefont pop
/Bookman-DemiItalic-latin1
    /Bookman-DemiItalic findfont
    dup length dict begin
	{1 index /FID ne {def} {pop pop} ifelse} forall
	/Encoding isolatin1encoding def
    currentdict end
definefont pop
/Courier-latin1
    /Courier findfont
    dup length dict begin
	{1 index /FID ne {def} {pop pop} ifelse} forall
	/Encoding isolatin1encoding def
    currentdict end
definefont pop
/Courier-Oblique-latin1
    /Courier-Oblique findfont
    dup length dict begin
	{1 index /FID ne {def} {pop pop} ifelse} forall
	/Encoding isolatin1encoding def
    currentdict end
definefont pop
/Courier-Bold-latin1
    /Courier-Bold findfont
    dup length dict begin
	{1 index /FID ne {def} {pop pop} ifelse} forall
	/Encoding isolatin1encoding def
    currentdict end
definefont pop
/Courier-BoldOblique-latin1
    /Courier-BoldOblique findfont
    dup length dict begin
	{1 index /FID ne {def} {pop pop} ifelse} forall
	/Encoding isolatin1encoding def
    currentdict end
definefont pop
/Helvetica-latin1
    /Helvetica findfont
    dup length dict begin
	{1 index /FID ne {def} {pop pop} ifelse} forall
	/Encoding isolatin1encoding def
    currentdict end
definefont pop
/Helvetica-Oblique-latin1
    /Helvetica-Oblique findfont
    dup length dict begin
	{1 index /FID ne {def} {pop pop} ifelse} forall
	/Encoding isolatin1encoding def
    currentdict end
definefont pop
/Helvetica-Bold-latin1
    /Helvetica-Bold findfont
    dup length dict begin
	{1 index /FID ne {def} {pop pop} ifelse} forall
	/Encoding isolatin1encoding def
    currentdict end
definefont pop
/Helvetica-BoldOblique-latin1
    /Helvetica-BoldOblique findfont
    dup length dict begin
	{1 index /FID ne {def} {pop pop} ifelse} forall
	/Encoding isolatin1encoding def
    currentdict end
definefont pop
/Helvetica-Narrow-latin1
    /Helvetica-Narrow findfont
    dup length dict begin
	{1 index /FID ne {def} {pop pop} ifelse} forall
	/Encoding isolatin1encoding def
    currentdict end
definefont pop
/Helvetica-Narrow-Oblique-latin1
    /Helvetica-Narrow-Oblique findfont
    dup length dict begin
	{1 index /FID ne {def} {pop pop} ifelse} forall
	/Encoding isolatin1encoding def
    currentdict end
definefont pop
/Helvetica-Narrow-Bold-latin1
    /Helvetica-Narrow-Bold findfont
    dup length dict begin
	{1 index /FID ne {def} {pop pop} ifelse} forall
	/Encoding isolatin1encoding def
    currentdict end
definefont pop
/Helvetica-Narrow-BoldOblique-latin1
    /Helvetica-Narrow-BoldOblique findfont
    dup length dict begin
	{1 index /FID ne {def} {pop pop} ifelse} forall
	/Encoding isolatin1encoding def
    currentdict end
definefont pop
/NewCenturySchoolbook-Roman-latin1
    /NewCenturySchoolbook-Roman findfont
    dup length dict begin
	{1 index /FID ne {def} {pop pop} ifelse} forall
	/Encoding isolatin1encoding def
    currentdict end
definefont pop
/NewCenturySchoolbook-Italic-latin1
    /NewCenturySchoolbook-Italic findfont
    dup length dict begin
	{1 index /FID ne {def} {pop pop} ifelse} forall
	/Encoding isolatin1encoding def
    currentdict end
definefont pop
/NewCenturySchoolbook-Bold-latin1
    /NewCenturySchoolbook-Bold findfont
    dup length dict begin
	{1 index /FID ne {def} {pop pop} ifelse} forall
	/Encoding isolatin1encoding def
    currentdict end
definefont pop
/NewCenturySchoolbook-BoldItalic-latin1
    /NewCenturySchoolbook-BoldItalic findfont
    dup length dict begin
	{1 index /FID ne {def} {pop pop} ifelse} forall
	/Encoding isolatin1encoding def
    currentdict end
definefont pop
/Palatino-Roman-latin1
    /Palatino-Roman findfont
    dup length dict begin
	{1 index /FID ne {def} {pop pop} ifelse} forall
	/Encoding isolatin1encoding def
    currentdict end
definefont pop
/Palatino-Italic-latin1
    /Palatino-Italic findfont
    dup length dict begin
	{1 index /FID ne {def} {pop pop} ifelse} forall
	/Encoding isolatin1encoding def
    currentdict end
definefont pop
/Palatino-Bold-latin1
    /Palatino-Bold findfont
    dup length dict begin
	{1 index /FID ne {def} {pop pop} ifelse} forall
	/Encoding isolatin1encoding def
    currentdict end
definefont pop
/Palatino-BoldItalic-latin1
    /Palatino-BoldItalic findfont
    dup length dict begin
	{1 index /FID ne {def} {pop pop} ifelse} forall
	/Encoding isolatin1encoding def
    currentdict end
definefont pop
/Symbol-latin1
    /Symbol findfont
definefont pop
/ZapfChancery-MediumItalic-latin1
    /ZapfChancery-MediumItalic findfont
    dup length dict begin
	{1 index /FID ne {def} {pop pop} ifelse} forall
	/Encoding isolatin1encoding def
    currentdict end
definefont pop
/ZapfDingbats-latin1
    /ZapfDingbats findfont
    dup length dict begin
	{1 index /FID ne {def} {pop pop} ifelse} forall
	/Encoding isolatin1encoding def
    currentdict end
definefont pop
28.346000 -28.346000 scale
-3.500000 -26.050000 translate
%%EndProlog


0.100000 slw
[0.200000] 0 sd
[0.200000] 0 sd
0 slj
0.321569 0.321569 0.321569 srgb
n 28.000000 17.000000 m 35.000000 17.000000 l s
n 28.000000 26.000000 m 35.000000 26.000000 l s
n 28.000000 18.000000 1.000000 1.000000 180.000000 270.000000 ellipse s
n 35.000000 18.000000 1.000000 1.000000 270.000000 360.000000 ellipse s
n 27.000000 18.000000 m 27.000000 25.000000 l s
n 36.000000 18.000000 m 36.000000 25.000000 l s
n 28.000000 25.000000 1.000000 1.000000 90.000000 180.000000 ellipse s
n 35.000000 25.000000 1.000000 1.000000 0.000000 90.000000 ellipse s
0.100000 slw
[0.200000] 0 sd
[0.200000] 0 sd
0 slj
n 28.000000 2.000000 m 35.000000 2.000000 l s
n 28.000000 16.000000 m 35.000000 16.000000 l s
n 28.000000 3.000000 1.000000 1.000000 180.000000 270.000000 ellipse s
n 35.000000 3.000000 1.000000 1.000000 270.000000 360.000000 ellipse s
n 27.000000 3.000000 m 27.000000 15.000000 l s
n 36.000000 3.000000 m 36.000000 15.000000 l s
n 28.000000 15.000000 1.000000 1.000000 90.000000 180.000000 ellipse s
n 35.000000 15.000000 1.000000 1.000000 0.000000 90.000000 ellipse s
0.100000 slw
[] 0 sd
[] 0 sd
0 slc
0.000000 0.000000 0.000000 srgb
n 8.000000 3.275000 m 9.776463 3.319412 l s
0.100000 slw
[] 0 sd
0 slj
0 slc
n 9.382140 3.559632 m 9.888232 3.322206 l 9.394636 3.059788 l s
0.100000 slw
[] 0 sd
[] 0 sd
0 slc
n 10.000000 24.325000 m 8.273607 24.325000 l s
0.100000 slw
[] 0 sd
0 slj
0 slc
n 8.661803 24.075000 m 8.161803 24.325000 l 8.661803 24.575000 l s
0.100000 slw
[] 0 sd
[] 0 sd
0 slc
n 31.800000 6.250000 m 30.136395 7.845237 l s
0.100000 slw
[] 0 sd
0 slj
0 slc
n 30.243559 7.396113 m 30.055698 7.922619 l 30.589619 7.757004 l s
0.100000 slw
[] 0 sd
[] 0 sd
0 slc
n 18.940507 36.923387 33.828675 33.828675 263.310760 286.920741 ellipse s
0.100000 slw
[] 0 sd
0 slj
0 slc
n 28.341531 4.681761 m 28.893254 4.591753 l 28.490214 4.204380 l s
0.100000 slw
[] 0 sd
[] 0 sd
0 slc
n 27.620871 80.110327 66.003219 66.003219 259.170350 272.065711 ellipse s
0.100000 slw
[] 0 sd
0 slj
0 slc
n 15.552710 14.962626 m 15.109740 15.303621 l 15.648318 15.453400 l s
1.000000 1.000000 1.000000 srgb
n 29.000000 3.000000 m 29.000000 6.250000 l 34.600000 6.250000 l 34.600000 3.000000 l f
0.100000 slw
[] 0 sd
[] 0 sd
0 slj
0.000000 0.000000 0.000000 srgb
n 29.000000 3.000000 m 29.000000 6.250000 l 34.600000 6.250000 l 34.600000 3.000000 l cp s
/Helvetica-latin1 ff 0.560000 scf sf
(compression) 29.750000 4.375000 m gs 1 -1 sc sh gr
(   method A) 29.750000 5.175000 m gs 1 -1 sc sh gr
1.000000 1.000000 1.000000 srgb
n 28.000000 23.000000 m 28.000000 25.300000 l 31.950000 25.300000 l 31.950000 23.000000 l f
0.100000 slw
[] 0 sd
[] 0 sd
0 slj
0.000000 0.000000 0.000000 srgb
n 28.000000 23.000000 m 28.000000 25.300000 l 31.950000 25.300000 l 31.950000 23.000000 l cp s
/Helvetica-latin1 ff 0.560000 scf sf
(coder) 29.050000 24.350000 m gs 1 -1 sc sh gr
0.100000 slw
[] 0 sd
[] 0 sd
0 slc
n 31.800000 21.250000 m 30.136395 22.845237 l s
0.100000 slw
[] 0 sd
0 slj
0 slc
n 30.243559 22.396113 m 30.055698 22.922619 l 30.589619 22.757004 l s
0.100000 slw
[] 0 sd
[] 0 sd
0 slc
n 21.877325 52.267321 28.776221 28.776221 256.618078 282.284647 ellipse s
0.100000 slw
[] 0 sd
0 slj
0 slc
n 15.534326 23.936028 m 15.108563 24.298280 l 15.653822 24.421538 l s
1.000000 1.000000 1.000000 srgb
n 29.000000 18.000000 m 29.000000 21.250000 l 34.600000 21.250000 l 34.600000 18.000000 l f
0.100000 slw
[] 0 sd
[] 0 sd
0 slj
0.000000 0.000000 0.000000 srgb
n 29.000000 18.000000 m 29.000000 21.250000 l 34.600000 21.250000 l 34.600000 18.000000 l cp s
/Helvetica-latin1 ff 0.560000 scf sf
(compression) 29.750000 19.375000 m gs 1 -1 sc sh gr
(   method B) 29.750000 20.175000 m gs 1 -1 sc sh gr
0.100000 slw
[] 0 sd
[] 0 sd
0 slc
n 8.050000 7.325000 m 9.776393 7.325000 l s
0.100000 slw
[] 0 sd
0 slj
0 slc
n 9.388197 7.575000 m 9.888197 7.325000 l 9.388197 7.075000 l s
0.100000 slw
[] 0 sd
[] 0 sd
0 slc
n 10.000000 11.325000 m 8.373607 11.325000 l s
0.100000 slw
[] 0 sd
0 slj
0 slc
n 8.761803 11.075000 m 8.261803 11.325000 l 8.761803 11.575000 l s
0.100000 slw
[] 0 sd
[] 0 sd
0 slc
n 10.000000 15.325000 m 8.323529 15.280882 l s
0.100000 slw
[] 0 sd
0 slj
0 slc
n 8.718168 15.041181 m 8.211765 15.277941 l 8.705015 15.541008 l s
0.100000 slw
[] 0 sd
[] 0 sd
0 slc
n 30.227891 9.668027 3.762238 3.762238 294.699890 58.928537 ellipse s
0.100000 slw
[] 0 sd
0 slj
0 slc
n 32.400740 12.494482 m 32.074017 12.948081 l 32.632930 12.937300 l s
1.000000 1.000000 1.000000 srgb
n 10.000000 2.000000 m 10.000000 4.650000 l 15.000000 4.650000 l 15.000000 2.000000 l f
0.100000 slw
[] 0 sd
[] 0 sd
0 slj
0.000000 0.000000 0.000000 srgb
n 10.000000 2.000000 m 10.000000 4.650000 l 15.000000 4.650000 l 15.000000 2.000000 l cp s
/Helvetica-latin1 ff 0.560000 scf sf
(I/O module 1) 10.750000 3.600000 m gs 1 -1 sc sh gr
1.000000 1.000000 1.000000 srgb
n 10.000000 6.000000 m 10.000000 8.650000 l 15.000000 8.650000 l 15.000000 6.000000 l f
0.100000 slw
[] 0 sd
[] 0 sd
0 slj
0.000000 0.000000 0.000000 srgb
n 10.000000 6.000000 m 10.000000 8.650000 l 15.000000 8.650000 l 15.000000 6.000000 l cp s
/Helvetica-latin1 ff 0.560000 scf sf
(I/O module 2) 10.750000 7.600000 m gs 1 -1 sc sh gr
1.000000 1.000000 1.000000 srgb
n 10.000000 10.000000 m 10.000000 12.650000 l 15.000000 12.650000 l 15.000000 10.000000 l f
0.100000 slw
[] 0 sd
[] 0 sd
0 slj
0.000000 0.000000 0.000000 srgb
n 10.000000 10.000000 m 10.000000 12.650000 l 15.000000 12.650000 l 15.000000 10.000000 l cp s
/Helvetica-latin1 ff 0.560000 scf sf
(I/O module 3) 10.750000 11.600000 m gs 1 -1 sc sh gr
1.000000 1.000000 1.000000 srgb
n 10.000000 14.000000 m 10.000000 16.650000 l 15.000000 16.650000 l 15.000000 14.000000 l f
0.100000 slw
[] 0 sd
[] 0 sd
0 slj
0.000000 0.000000 0.000000 srgb
n 10.000000 14.000000 m 10.000000 16.650000 l 15.000000 16.650000 l 15.000000 14.000000 l cp s
/Helvetica-latin1 ff 0.560000 scf sf
(I/O module 4) 10.750000 15.600000 m gs 1 -1 sc sh gr
1.000000 1.000000 1.000000 srgb
n 10.000000 23.000000 m 10.000000 25.650000 l 15.000000 25.650000 l 15.000000 23.000000 l f
0.100000 slw
[] 0 sd
[] 0 sd
0 slj
0.000000 0.000000 0.000000 srgb
n 10.000000 23.000000 m 10.000000 25.650000 l 15.000000 25.650000 l 15.000000 23.000000 l cp s
/Helvetica-latin1 ff 0.560000 scf sf
(I/O module 5) 10.750000 24.600000 m gs 1 -1 sc sh gr
0.100000 slw
[0.200000] 0 sd
[0.200000] 0 sd
0 slc
0.321569 0.321569 0.321569 srgb
n 35.707107 2.292893 m 36.999993 3.999997 l s
0.100000 slw
[0.200000] 0 sd
[0.200000] 0 sd
0 slc
n 35.707107 17.292893 m 36.999993 19.000007 l s
/Helvetica-latin1 ff 0.560000 scf sf
(compression) 37.000000 4.000000 m gs 1 -1 sc sh gr
(module A) 37.000000 4.800000 m gs 1 -1 sc sh gr
/Helvetica-latin1 ff 0.560000 scf sf
(compression) 37.000000 19.000000 m gs 1 -1 sc sh gr
(module B) 37.000000 19.800000 m gs 1 -1 sc sh gr
1.000000 1.000000 1.000000 srgb
n 28.000000 8.000000 m 28.000000 10.300000 l 31.950000 10.300000 l 31.950000 8.000000 l f
0.100000 slw
[] 0 sd
[] 0 sd
0 slj
0.000000 0.000000 0.000000 srgb
n 28.000000 8.000000 m 28.000000 10.300000 l 31.950000 10.300000 l 31.950000 8.000000 l cp s
/Helvetica-latin1 ff 0.560000 scf sf
(model) 29.000000 9.000000 m gs 1 -1 sc sh gr
(coder) 29.000000 9.800000 m gs 1 -1 sc sh gr
1.000000 1.000000 1.000000 srgb
n 30.000000 13.000000 m 30.000000 15.300000 l 33.950000 15.300000 l 33.950000 13.000000 l f
0.100000 slw
[] 0 sd
[] 0 sd
0 slj
0.000000 0.000000 0.000000 srgb
n 30.000000 13.000000 m 30.000000 15.300000 l 33.950000 15.300000 l 33.950000 13.000000 l cp s
/Helvetica-latin1 ff 0.560000 scf sf
(data) 31.000000 14.000000 m gs 1 -1 sc sh gr
(coder) 31.000000 14.800000 m gs 1 -1 sc sh gr
/Helvetica-latin1 ff 0.560000 scf sf
(DATA INPUT) 18.600000 2.650000 m gs 1 -1 sc sh gr
/Helvetica-latin1 ff 0.560000 scf sf
(METHOD A MODEL INPUT) 16.800000 6.900000 m gs 1 -1 sc sh gr
/Helvetica-latin1 ff 0.560000 scf sf
(METHOD A MODEL OUTPUT) 17.050000 10.250000 m gs 1 -1 sc sh gr
/Helvetica-latin1 ff 0.560000 scf sf
(DATA OUTPUT) 18.750000 13.750000 m gs 1 -1 sc sh gr
/Helvetica-latin1 ff 0.560000 scf sf
(DATA INPUT) 19.325000 19.055000 m gs 1 -1 sc sh gr
/Helvetica-latin1 ff 0.560000 scf sf
(DATA OUTPUT) 18.775000 24.605000 m gs 1 -1 sc sh gr
1.000000 1.000000 1.000000 srgb
n 5.775000 3.275000 2.225000 1.075000 0 360 ellipse f
0.100000 slw
[] 0 sd
[] 0 sd
0.000000 0.000000 0.000000 srgb
n 5.775000 3.275000 2.225000 1.075000 0 360 ellipse cp s
/Helvetica-latin1 ff 0.560000 scf sf
(file A) 5.059390 3.490000 m gs 1 -1 sc sh gr
1.000000 1.000000 1.000000 srgb
n 5.825000 7.325000 2.225000 1.075000 0 360 ellipse f
0.100000 slw
[] 0 sd
[] 0 sd
0.000000 0.000000 0.000000 srgb
n 5.825000 7.325000 2.225000 1.075000 0 360 ellipse cp s
/Helvetica-latin1 ff 0.560000 scf sf
(file B) 5.109390 7.540000 m gs 1 -1 sc sh gr
1.000000 1.000000 1.000000 srgb
n 5.925000 11.325000 2.225000 1.075000 0 360 ellipse f
0.100000 slw
[] 0 sd
[] 0 sd
0.000000 0.000000 0.000000 srgb
n 5.925000 11.325000 2.225000 1.075000 0 360 ellipse cp s
/Helvetica-latin1 ff 0.560000 scf sf
(file C) 5.209390 11.540000 m gs 1 -1 sc sh gr
1.000000 1.000000 1.000000 srgb
n 5.875000 15.275000 2.225000 1.075000 0 360 ellipse f
0.100000 slw
[] 0 sd
[] 0 sd
0.000000 0.000000 0.000000 srgb
n 5.875000 15.275000 2.225000 1.075000 0 360 ellipse cp s
/Helvetica-latin1 ff 0.560000 scf sf
(file D) 5.159390 15.490000 m gs 1 -1 sc sh gr
1.000000 1.000000 1.000000 srgb
n 5.825000 24.325000 2.225000 1.075000 0 360 ellipse f
0.100000 slw
[] 0 sd
[] 0 sd
0.000000 0.000000 0.000000 srgb
n 5.825000 24.325000 2.225000 1.075000 0 360 ellipse cp s
/Helvetica-latin1 ff 0.560000 scf sf
(memory) 4.625000 24.425000 m gs 1 -1 sc sh gr
0.100000 slw
[] 0 sd
[] 0 sd
0 slj
0 slc
n 15.000000 7.325000 m 24.900000 7.450000 26.500000 7.750000 28.860314 4.799608 c s
0.100000 slw
[] 0 sd
0 slj
0 slc
n 28.813027 5.258912 m 28.930157 4.712304 l 28.422592 4.946564 l s
0.100000 slw
[] 0 sd
[] 0 sd
0 slj
0 slc
n 28.000000 9.150000 m 24.450000 9.300000 16.600000 7.750000 15.091345 11.120902 c s
0.100000 slw
[] 0 sd
0 slj
0 slc
n 15.021736 10.664447 m 15.045672 11.222951 l 15.478114 10.868700 l s
0.100000 slw
[] 0 sd
[] 0 sd
0 slj
0 slc
n 15.000000 15.325000 m 16.100000 20.600000 22.000000 19.800000 28.776463 19.630588 c s
0.100000 slw
[] 0 sd
0 slj
0 slc
n 28.394636 19.890212 m 28.888232 19.627794 l 28.382140 19.390368 l s
showpage
